
Error results for RHC
---------------------------
2954.500
2782.984
2780.808
2780.808
2780.808
2780.808
2780.808
2737.802
2737.802
2737.739
2737.739
2737.739
2737.739
2737.739
2737.739
2737.739
2737.739
2737.739
2782.541
2737.739
2737.739
2737.739
2737.739
2780.819
2737.739
2737.739
2737.739
2737.739
2737.739
2737.739
2737.739
2737.739
2737.739
2737.739
2737.739
2737.739
2737.739
2737.681
2723.147
2723.146
2800.505
2723.146
2723.146
2723.146
2761.502
2723.146
2723.180
2723.146
2723.146
2723.146
2723.146
2723.146
2723.147
2727.401
2723.146
2723.146
2723.146
2723.146
2723.146
2728.374
2723.146
2723.147
2723.146
2744.853
2723.146
2723.146
2723.146
2707.886
2707.886
2850.387
2707.919
2707.886
2707.886
2707.871
2707.871
2707.871
2707.871
2707.871
2707.871
2707.871
2707.921
2707.871
2707.871
2707.871
2707.871
2707.871
2707.871
2707.953
2707.871
2707.871
2708.008
2707.871
2707.871
2707.871
2830.797
2707.871
2707.871
2707.871
2698.034
2698.034

Error results for SA
---------------------------
3267.200
3267.200
3268.386
3268.386
3268.386
3268.386
3268.386
3268.386
3268.386
3268.386
3268.386
3268.386
3268.386
3268.386
3268.386
3268.386
3268.386
3268.386
3269.729
3269.729
3269.729
3269.729
2938.219
2938.219
2938.219
2938.219
2770.037
2770.037
2770.037
2770.037
2770.037
2769.758
2769.758
2769.758
2769.758
2769.758
2804.588
2804.588
2804.614
2804.614
2804.614
2804.614
2804.614
2804.614
2804.614
2769.758
2769.758
2769.758
2769.758
2769.758
2769.758
2769.758
2769.758
2769.758
2769.758
2769.758
2769.590
2769.590
2769.590
2769.590
2769.590
2769.590
2769.590
2769.590
2769.590
2769.590
2769.590
2769.590
2769.590
2778.858
2778.858
2778.858
2778.858
2778.858
2778.858
2778.858
2778.858
2778.858
2778.858
2778.858
2778.858
2849.866
2849.866
2906.182
2906.182
2906.182
2906.182
2873.588
2873.588
2873.588
2873.588
2873.588
2873.588
2873.588
2873.588
2873.588
2873.588
2865.966
2865.966
2865.966

Error results for GA
---------------------------
5647.600
2853.058
2838.608
3110.222
3645.626
3797.413
2825.763
2854.517
2977.472
4316.786
4228.953
2924.615
3904.779
2933.833
2938.234
2923.192
6039.626
3109.950
3227.337
2887.938
2843.492
3242.174
2978.173
2866.695
2855.832
2833.290
3215.275
2791.742
2813.483
2862.728
3211.086
2833.820
2851.712
3435.371
2882.052
2858.280
2849.666
2823.624
2818.978
2818.978
3505.603
2796.376
2813.156
3206.372
2806.152
2773.060
2878.357
2849.587
2862.503
3365.903
2840.365
2864.973
2848.688
2802.700
2741.264
2652.787
2893.133
2652.787
2774.176
2624.262
2877.257
2929.367
2927.888
2778.753
2792.928
2803.918
2891.345
2849.121
2826.945
2804.251
2990.727
3071.353
3256.839
2907.730
2943.841
3089.444
2982.352
2830.172
2810.141
3105.049
2836.118
2570.330
3121.639
2927.788
2783.547
2808.904
2805.136
2649.423
3013.477
2858.735
2777.697
2858.732
2837.694
3145.707
3061.226
2892.270
2762.331
2795.184
3304.054
2798.509


Results for RHC:
Correctly classified (training set): 22870 instances.
Incorrectly classified (training set): 7292 instances.
Percent training set correctly classified: 75.824%

Correctly classified 11473 instances.
Incorrectly classified 3587 instances.
Percent correctly classified: 76.182%
Training time: 15.411 seconds
Testing time: 0.065 seconds


Results for SA:
Correctly classified (training set): 22749 instances.
Incorrectly classified (training set): 7413 instances.
Percent training set correctly classified: 75.423%

Correctly classified 11413 instances.
Incorrectly classified 3647 instances.
Percent correctly classified: 75.784%
Training time: 15.071 seconds
Testing time: 0.062 seconds


Results for GA:
Correctly classified (training set): 23100 instances.
Incorrectly classified (training set): 7062 instances.
Percent training set correctly classified: 76.586%

Correctly classified 11566 instances.
Incorrectly classified 3494 instances.
Percent correctly classified: 76.799%
Training time: 609.775 seconds
Testing time: 0.066 seconds

