
Error results for RHC
---------------------------
2918.286
2918.286
2918.286
2918.286
2918.286
2918.286
4243.913
2918.286
2918.286
2918.286
2918.286
2918.286
2918.286
2918.286
2918.286
2918.286
2918.286
2918.286
2918.286
2918.286
2918.286
2918.286
2918.286
2918.286
2918.286
2918.286
2918.286
2918.286
2918.286
2918.286
2918.286
2918.286
2918.286
2918.286
2918.286
2918.286
2918.286
2918.286
2918.286
2919.907
2918.286
2918.286
2918.286
2918.286
2918.286
2918.286
2918.286
2918.286
2918.286
2918.286
2918.286
2918.286
2918.286
2918.286
2918.286
2918.286
2918.286
2918.286
2918.286
2918.286
2918.286
2918.286
2918.286
2918.286
2918.286
2918.286
2918.286
3360.865
2918.286
2918.286
2918.286
2918.286
2918.286
2918.286
2918.286
2918.286
2918.286
2918.286
2918.286
2918.286
2918.286
2918.286
2918.286
2918.286
2918.286
2918.286
2918.286
2919.093
2918.286
2918.286
2918.171
2918.171
2918.171
2829.926
2829.926
2829.926
2821.403
2821.403
2821.403
2821.403
2821.403
2821.403
2821.403
2821.403
2821.403
2821.403
2821.589
2821.403
2821.403
2821.403
2821.403
2821.403
2821.403
2821.403
2821.403
2827.161
2821.403
2821.403
2953.162
2821.403
2822.172
2821.403
2821.403
2821.403
2821.403
2821.403
2821.403
2821.403
2821.403
2821.403
2821.403
2821.403
2821.403
2821.403
2821.403
2821.403
2821.403
2821.403
2821.403
2821.403
2821.403
2821.403
2821.403
2821.403
2821.403
2821.403
2821.403
2990.934
2821.403
2821.403
2821.403
2821.403
2821.403
2821.403
2821.403
2821.403
2822.542
2821.403
2821.403
2821.403
2821.403
2821.403
2821.403
2821.403
2821.403
2821.403
2821.403
2821.403
2821.403
2821.403
2821.403
2821.403
2853.315
2821.403
2821.403
2821.403
2821.403
2821.403
2821.403
2837.689
2821.403
2821.403
2821.185
2821.185
2821.185
2821.185
2821.185
2821.185
2821.185
2821.185
2821.185
2821.185
2821.185
2821.185
2821.185
2821.185
2821.185
2821.185
2821.185
2821.185
2821.185
2821.185
2821.185
2821.185
2821.185
2821.185
2821.185
2821.185
2821.185
2821.185
2821.185
2821.185
2821.185
2821.185
2821.185
2821.185
2821.185
2821.185
2821.185
2821.185
2821.185
2821.185
2821.185
2821.185
2821.185
2821.185
2821.185
2821.185
2819.670
2819.670
2819.670
2819.670
2819.670
2820.644
2819.670
2819.670
2819.670
2819.670
2819.670
2819.670
2819.670
2819.670
2819.670
2819.670
3012.120
2819.670
2819.670
2819.670
2819.670
2819.670
2819.670
2819.670
2819.670
2819.670
2819.670
2819.670
2819.670
2819.670
2819.670
2819.670
2819.670
2819.670
2819.670
2819.670
2819.670
2819.670
2819.670
2819.670
2819.670
2819.670
2819.670
2819.670
2819.670
2819.670
2819.670
2819.670
2819.670
2819.670
2819.670
2819.670
2819.670
2819.670
2819.670
2819.670
2909.046
2819.670
2819.670
2817.901
2817.901
2817.901
2817.901
2817.901
2817.901
2817.901
2817.901
2817.901
2817.901
2817.901
2817.901
2817.901
2817.901
2817.901
2817.901
2817.901
2859.965
2817.901
2817.901
2817.901
2817.901
2817.901
2817.901
2817.901
2817.901
2858.418
2817.901
2817.901
2817.901
2817.901
2817.901
2817.901
2869.568
2817.901
2817.901
2817.901
2817.901
2817.901
2817.901
2866.957
2817.901
2817.901
2913.114
2815.394
2815.394
2815.394
2815.394
2815.394
2815.394
2815.394
2815.394
2815.394
2815.394
2808.700
2808.700
2808.700
2808.700
2808.700
2808.700
2808.700
2808.700
2808.700
2899.436
2883.507
2808.700
2808.700
2808.700
2808.700
2808.700
2808.700
2808.700
2808.700
2808.700
2808.700
2810.309
2808.700
2808.700
2808.700
2808.700
2808.700
2809.548
2808.700
2808.700
2808.700
2808.700
2808.700
2808.700
2808.700
2808.700
2808.700
2808.700
2808.700
2808.700
2809.896
2808.700
2808.700
2808.700
2808.837
2808.700
2808.700
2808.700
2808.700
2808.700
2810.850
2808.700
2847.655
2808.700
2808.700
2808.700
2808.700
2808.700
2808.700

Error results for SA
---------------------------
3278.251
3278.251
3278.251
3278.251
3267.596
3267.596
3267.596
3267.596
3267.592
3267.592
3267.592
3267.592
3267.592
3267.503
3267.503
3267.503
3267.503
3267.508
3267.508
3267.505
3273.667
3273.667
3273.667
3273.667
3267.710
3267.819
3267.819
3267.819
3267.819
2905.158
2905.159
2905.159
2905.159
2905.159
2905.159
2905.159
2905.159
2905.154
2905.154
2905.154
2905.154
2905.154
3388.659
3388.659
3388.659
3388.654
3388.654
3388.654
3388.654
3388.654
3387.950
3387.950
3387.950
3387.950
3387.950
3387.950
3387.804
3387.804
3387.804
3387.804
3387.804
3387.804
3388.004
3392.393
3392.393
3392.393
3392.393
3862.046
3862.046
3862.046
3862.046
3862.046
3862.046
3862.046
3862.046
3862.046
3862.046
3862.046
3142.600
3142.734
3142.736
3142.736
3142.736
3142.736
3142.736
3142.797
3142.797
3142.781
3143.090
3143.090
3143.090
3143.090
3143.090
3143.090
3143.090
3143.090
3143.090
3143.090
3143.090
3145.067
3145.067
3145.067
3145.067
3145.067
3145.067
3145.067
3145.292
3145.292
3145.292
3145.292
3145.292
3145.293
3143.069
3143.069
3143.069
3143.069
3143.069
3223.863
3223.960
3223.960
3223.960
3223.960
3223.960
3224.518
3224.518
3321.592
3321.592
3321.592
3090.652
3090.652
3269.954
3474.773
3474.773
3474.773
3474.773
3474.773
3474.773
3474.773
3474.774
3474.774
3474.407
3474.407
3474.407
3474.407
3474.407
3474.407
3474.407
3474.407
3474.407
3474.394
3474.394
3474.394
3474.394
3474.394
3474.394
3474.394
3474.394
3474.394
3474.394
4095.415
4095.415
4095.415
4095.425
4095.425
4095.425
4095.425
4095.425
4095.425
4095.425
4095.408
4095.408
4102.168
4102.168
4102.168
4098.998
4098.998
4098.998
4098.998
4098.998
4098.998
4098.998
4098.998
4098.998
4098.998
4098.998
4098.998
4101.284
4101.284
4101.284
4101.284
4101.283
4101.283
4101.283
4864.761
4864.761
3740.382
3740.382
3740.382
3740.382
3740.382
3740.382
3740.382
3740.395
3740.395
3740.395
3739.977
3739.977
3739.977
3739.894
3748.664
3748.664
3748.664
3748.689
3748.689
3748.689
3748.689
3748.610
3748.610
3749.014
3749.014
3749.014
3749.039
3749.039
3749.039
3749.039
3749.039
3749.138
3749.138
3749.138
3749.092
3749.092
3748.867
3748.867
3748.867
3748.867
3748.418
3748.493
3748.493
3748.493
3748.493
3365.088
3365.088
3365.088
3365.103
3365.225
3364.644
3364.684
3364.684
3364.684
3364.684
3364.684
3364.684
3364.632
3364.632
3364.632
3364.632
3359.190
3359.190
3359.190
3359.189
3359.189
3359.189
3350.992
3350.992
3350.992
3351.057
3351.057
3351.817
3351.817
3351.817
3351.817
3351.817
3351.817
2830.261
2830.261
2830.261
2830.261
2830.277
2830.276
2830.276
2830.276
2830.276
2830.289
2830.289
3044.580
3044.580
3044.580
3044.580
3044.580
3044.580
3044.580
3047.784
3047.784
3047.784
3047.784
3047.784
3047.784
3047.784
3047.784
3047.784
3047.784
3043.829
3043.785
3043.785
3043.785
3043.785
3043.785
3043.785
3043.785
3043.785
3043.785
3043.785
3043.785
3043.785
3043.785
3043.785
3043.785
3043.785
3043.785
3043.785
3043.785
3043.786
3043.786
3056.418
3056.418
3056.418
3056.418
3659.281
3659.281
3659.281
3659.281
3659.281
3659.281
3659.281
3659.281
3659.281
3659.281
3659.281
3659.281
3940.692
3940.692
3940.692
3940.692
3940.692
3940.692
3940.692
3940.692
3940.692
3940.692
3940.692
3940.692
3940.692
3940.692
3940.692
3940.692
3940.692
3940.692
3618.387
3618.387
3618.387
3618.387
3618.387
3618.387
3618.387
3618.387
3618.387
3618.387
3618.377
3618.377
3618.377
3618.380
3618.380
3618.380
3618.380
3618.380
3618.342
3618.342
3618.342
3618.342
3618.342
3618.341
3618.341
3618.341
3618.341
3618.341
3618.341
3618.341
3618.341
3372.601
3372.601
3372.601
3372.601
3372.601
3372.601
2981.832
2981.832
2981.832
2981.832
2981.832
2981.832

Error results for GA
---------------------------
6044.328
4312.483
3282.392
2967.140
2857.991
2907.490
3458.475
2821.662
2881.668
3127.722
2866.306
2893.703
2814.812
2850.207
4941.461
2833.273
2943.201
3016.696
2805.104
3036.668
2836.480
3216.103
2976.802
2839.645
2837.768
3071.086
2762.731
2846.097
2919.047
2842.800
4086.458
3179.104
4105.165
2842.800
3140.511
2814.571
2861.431
2818.987
2988.886
2895.387
3072.467
3233.098
3072.467
2837.082
2844.756
2868.881
3255.437
3216.460
2819.028
2828.665
3758.748
2828.806
2824.449
2821.532
2815.564
2821.294
2819.225
2835.943
2813.293
2989.178
2825.576
2814.791
3087.146
3047.332
2870.690
2997.610
2821.191
3357.437
2849.300
2847.061
2918.303
2985.324
3237.366
2853.865
3122.142
3046.185
2818.960
3087.984
2832.137
2824.007
2860.027
2865.270
2998.757
2859.158
2849.645
2838.699
2861.267
2858.604
2844.125
2760.627
2953.466
2834.855
3208.187
2834.334
3034.774
3163.805
2911.314
2838.825
2953.881
2828.337
2891.896
2836.068
2862.115
2816.889
2916.163
2971.723
2965.985
2864.083
2812.164
2998.397
2824.416
2821.239
2831.258
2861.308
2839.129
2921.358
2841.508
2831.083
2825.845
2823.381
2818.239
2834.928
2979.785
2818.710
2818.710
2821.719
2843.470
2844.228
2910.799
2886.220
3146.294
2820.597
2824.140
3049.190
2827.152
2889.728
2823.128
2856.770
2998.084
2878.564
2840.107
2981.413
2846.982
2828.828
2859.064
2960.787
2845.308
2825.351
2818.687
2899.305
2825.459
2896.482
2821.652
2977.663
2864.125
2947.805
2840.080
2871.362
2791.162
2829.392
2833.883
2887.050
2846.236
2817.665
2848.579
2875.307
2856.541
2869.322
2896.217
2833.157
2849.572
2910.996
2851.974
2822.296
2837.045
3052.068
2819.526
2823.632
2817.222
2851.125
2867.108
2821.689
2825.159
2840.503
2999.817
2864.714
2824.715
2819.955
2815.857
2894.877
2815.880
2846.214
2856.167
2832.290
2838.738
2863.074
2827.942
2920.433
2856.991
2901.453
2830.940
2820.909
2818.298
2851.826
2865.975
2822.141
3016.289
2850.091
2870.142
2882.413
2846.374
2840.033
2886.883
2846.979
2818.746
2833.090
2904.002
2826.172
2883.338
3131.607
2817.597
2883.452
2869.207
2826.389
2823.212
2824.078
2824.223
2894.865
2936.679
2825.733
2820.289
2822.088
2822.481
2890.066
2847.242
2823.329
3025.607
2820.192
2846.931
2837.471
2820.901
2899.488
2846.097
2870.282
2825.782
2864.578
2820.803
2836.482
2851.945
2908.913
2820.297
2846.931
2837.169
2813.556
2805.801
2847.058
2847.169
2861.254
2914.920
2820.359
2993.119
2820.049
2827.091
2851.364
2827.023
2818.792
2845.601
2820.672
2949.333
2819.077
2820.049
2881.211
2851.357
2913.338
2852.124
2848.766
2894.173
2846.568
2820.180
2822.979
2851.834
2819.331
2885.581
2820.100
2820.297
2818.792
2820.527
3079.404
2820.180
2909.736
2820.180
2839.819
2820.363
2856.618
2881.828
2827.171
2828.274
2820.297
2846.926
2856.873
2860.301
2858.330
2866.088
2818.621
2819.930
2839.173
2914.300
2939.593
2820.297
2857.015
2820.297
2820.297
2819.077
2821.082
2811.003
2831.256
2820.502
2836.572
2821.082
2816.278
2823.424
2949.514
2861.372
2913.705
2845.264
2902.412
2826.987
2855.741
2847.050
2876.888
2864.421
2820.803
2819.077
2831.815
3017.514
2845.816
2845.816
2846.630
2828.187
2994.579
2837.263
2953.292
2944.102
2913.855
2819.556
2854.199
2821.191
2820.585
2820.297
2858.330
2819.926
3051.080
2826.384
3029.574
2825.333
2819.592
2820.297
2853.813
2856.345
2886.088
2821.449
2843.413
2818.177
3116.340
2818.789
2852.637
2885.671
2824.787
2854.691
2847.050
2885.744
2820.297
2819.077
2819.921
2854.085
2847.564
2858.330
2857.720
2857.223
2826.497
2818.919
2846.454
2819.259
2857.888
2878.513
2857.520
2871.236
2847.564
2820.418
2857.223
3066.005
2819.983
2867.321
2816.822
2858.330
2857.223
2822.791
2836.458
2824.628
2819.921


Results for RHC:
Correctly classified (training set): 22679 instances.
Incorrectly classified (training set): 7483 instances.
Percent training set correctly classified: 75.191%

Correctly classified 11384 instances.
Incorrectly classified 3676 instances.
Percent correctly classified: 75.591%
Training time: 60.727 seconds
Testing time: 0.068 seconds


Results for SA:
Correctly classified (training set): 22654 instances.
Incorrectly classified (training set): 7508 instances.
Percent training set correctly classified: 75.108%

Correctly classified 11360 instances.
Incorrectly classified 3700 instances.
Percent correctly classified: 75.432%
Training time: 60.742 seconds
Testing time: 0.062 seconds


Results for GA:
Correctly classified (training set): 22654 instances.
Incorrectly classified (training set): 7508 instances.
Percent training set correctly classified: 75.108%

Correctly classified 11360 instances.
Incorrectly classified 3700 instances.
Percent correctly classified: 75.432%
Training time: 2493.339 seconds
Testing time: 0.068 seconds

