
Error results for RHC
---------------------------
4587.073
4587.073
3726.166
3726.072
3726.072
3726.072
3726.072
3726.072
4167.380
3726.072
3786.579
3726.072
3726.072
3726.072
3726.072
3726.072
3726.072
3726.072
3726.072
3472.133
3472.133
3472.133
3472.133
3472.133
3472.133
3472.133
3472.133
3472.133
3472.133
3472.133
3472.133
3472.133
3290.732
3290.732
4156.903
3290.732
3290.732
3812.719
3290.732
3290.732
3290.732
3290.732
3290.732
3290.732
3290.732
3290.732
3290.732
3290.732
3290.732
3290.732
3290.732
3290.732
3290.732
3290.732
3290.732
3290.732
3290.287
3290.284
3290.284
3290.284
3290.284
3290.284
3292.466
3290.284
3290.284
3290.284
3290.284
3290.284
3290.284
3290.284
3290.284
3290.287
3290.284
3290.284
3290.284
3290.284
3290.284
3290.284
3290.284
3290.284
3290.284
3290.284
3290.284
3035.470
3035.470
2843.153
2843.153
2843.153
2843.153
2843.153
3063.680
2843.153
2843.153
2857.974
2843.153
2843.153
2843.153
2843.153
2843.153
2843.153
2843.153
2845.441
2843.153
2843.153
2843.153
2843.153
2843.298
2843.153
2843.153
2886.952
2843.153
2843.153
2843.257
2843.153
2843.153
2843.153
2852.200
2816.574
2816.574
2816.574
2816.574
2950.369
2816.574
2816.574
2816.574
2816.574
2816.574
2816.574
2816.574
2816.574
2816.574
2816.574
2816.725
2816.574
2816.574
2816.574
2814.453
2814.453
2814.453
2814.453
2814.453
2814.453
2814.453
2814.453
2811.038
2811.038
2811.038
2934.717
2811.038
2813.175
2811.038
2811.038
2811.038
2811.038
2811.038
2811.038
2811.038
2811.038
2811.038
4288.916
2811.038
2811.038
2811.038
2811.038
2811.038
2811.038
2811.038
2811.038
2811.038
2811.038
2811.038
2811.038
2811.038
2811.038
2811.038
2811.038
2808.812
2808.812
2808.812
2808.812
2808.812
2808.812
2808.812
2808.812
2808.812
2808.812
2808.812
2808.812
2808.812
2808.812
2808.812
2808.812
2808.812
2808.812
2808.812
2808.812
2808.812
2808.812
2808.812
2808.812
2808.812
3055.660
2808.812
2815.731
2808.812
2808.812
2808.812
2808.812
2808.812
2808.812
2808.812
2808.812
2808.812
2808.812
2808.812
2808.812
2808.812
2808.812
2808.812
2808.812
2808.812
2808.812
2808.812
2808.812
2808.812
2808.812
2808.812
2808.812
2808.812
2808.812
2808.812
2808.812
2805.429
2805.429
2805.429
2809.535
2805.429
2805.429
2805.429
2805.429
2805.429
2805.910
2805.429
2805.429
2805.429
2805.429
2805.429
2805.429
2805.429
2808.571
2805.429
2805.429
2801.630
2801.630
2801.630
2801.630
2801.630
2801.630
2801.630
2801.630
2801.630
2801.630
2801.630
2801.630
2801.630
2801.630
2801.630
2801.630
2801.630
2801.630
2801.630
2801.630
2801.630
2801.630
2801.630
2805.844
2801.630
2801.630
2801.630
2801.630
2801.630
2801.630
2801.630
2818.133
2801.630
2801.630
2801.630
2801.630
2801.630
2801.630
2801.630
2801.630
2798.440
2798.440
2798.440
2807.598
2797.313
2797.313
2797.313
2797.313
2797.313
2797.313
2797.313
2797.313
2797.313
2797.313
3046.926
2797.313
2797.313
2797.313
2797.313
2797.313
2797.313
2797.313
2797.313
2797.313
2797.313
2802.449
2797.313
2797.313
2797.313
2797.313
2797.313
2797.313
2797.249
2797.249
2868.207
2797.249
2797.249
2797.249
2797.249
2797.249
2797.249
2797.249
2797.249
2858.307
2797.185
2797.185
2797.185
2797.185
2797.185
2797.185
2797.185
2797.185
2797.185
2797.185
2797.185
2797.185
2797.185
2799.004
2798.689
2797.185
2797.185
2810.114
2797.185
2797.185
2797.185
2797.185
2797.185
2797.185
2797.185
2797.185
2797.185
2797.185
2797.185
2797.185
2797.185
2797.185
2797.185
2797.185
2797.185
2797.185
2797.185
2797.185
2797.185
2797.185
2797.185
2797.185
2797.185
2800.125
2797.185
2797.185
2797.185
2797.185
2797.185
2797.185
2797.185
2797.185
2797.185
2797.185
2797.185
2797.185
2796.684
2796.684
2796.684
2796.684
2796.684
2796.684
2796.684
2796.684
2796.684
2796.702
2796.684
2796.684
2796.684
2796.684
2796.684
2796.684
2796.684
2796.684
2796.684
2796.684
2796.684
2796.684
2796.684
2796.684
2796.684
2796.684
2796.684
2800.419
2796.684
2796.684
2796.684
2796.684
2796.684
2796.684
2796.684
2796.684
2796.684
2796.684
2796.684
2796.684
2796.684
2796.684
2796.684
2796.684
2796.684
2796.684
2796.684
2796.684
2796.684
2796.684
2796.684
2796.684
2796.684
2796.684
2796.684
2803.774
2796.684
2796.684
2800.836
2796.684
2796.684
2796.684
2796.684
2796.684
2796.684
2809.741
2796.943
2796.684
2796.684
2796.684
2798.523
2796.684
2796.684
2796.684
2796.684
2796.684
2796.684
2860.634
2796.684
2796.684
2796.684
2796.684
2796.684
2796.684
2796.684
2804.170
2796.684
2796.684
2796.684
2796.684
2796.684
2796.684
2796.684
2800.899
2796.684
2796.684
2796.684
2796.684
2796.683
2837.428
2796.683
2796.013
2796.013
2796.013
2796.013
2891.655
2796.013
2796.013
2796.013
2796.013
2796.013
2796.013
2796.013
2796.013
2796.013
2796.013
2796.013
2796.013
2796.013
2796.013
2796.013
2796.013
2796.013
2796.013
2869.013
2854.907
2796.013
2796.013
2796.013
2796.013
2796.013
2796.013
2796.013
2882.233
2795.715
2795.715
2793.337
2793.337
2793.337
2793.355
2793.337
2793.337
2793.337
2793.337
2794.125
2793.337
2793.337
2793.337
2898.150
2793.337
2793.337
2793.337
2793.337
2793.337
2793.337
2793.337
2793.337
4286.248
2793.337
2793.337
2793.337
2793.337
2798.715
2910.470
2793.337
2793.337
2793.337
2791.775
2805.573
2791.775
2791.775
2791.775
2791.775
2791.775
2791.775
2791.775
2791.775
2791.775
2791.775
2925.167
2791.775
2791.775
2791.775
2791.775
2894.844
2791.770
2791.770
2791.770
2791.965
2791.770
2791.855
2787.774
2787.774
2787.774
2787.705
2787.705
2801.013
2787.705
2787.705
2787.705
2787.705
2787.981
2787.705
2787.705
2787.705
2801.188
2781.137
2781.137
2803.914
2774.798
2774.798
2774.798
2774.798
2774.798
2774.798
2774.651
2774.651
2774.651
2774.651
2774.651
2774.651
2774.651
2774.651
2774.651
2774.651
2774.651
2774.651
2774.651
2774.651
2774.651
2780.148
2774.651
2774.651
2774.651
2774.679
2783.347
2720.325
2720.325
2720.325
2720.325
2720.325
2720.325
2720.325
2720.325
2720.325
2720.325
2720.325
2720.325
2720.325
2720.325
2720.325
2720.325
2720.325
2720.325
2720.312
2710.417
2710.417
2710.416
2710.395
2710.395
2710.395
2710.395
2840.187
2710.395
2710.395
2710.386
2710.386
2710.384
2710.384
2710.364
2752.998
2710.368
2710.391
2710.364
2710.364
2710.315
2710.314
2710.314
2706.411
2706.411
2711.279
2706.411
2706.411
2717.700
2706.390
2706.390
2706.390
2706.390
2706.390
2706.390
2706.427
2706.390
2706.390
2706.336
2706.336
2706.372
2706.336
2706.336
2706.336
2706.336
2706.336
2706.336
2706.336
2708.005
2706.338
2713.481
2706.336
2706.345
2706.464
2706.340
2706.336
2706.361
2707.615
2706.336
2706.336
2706.336
2706.336
2706.336
2710.796
2706.341
2706.336
2697.988
2697.988
2697.988
2693.663
2693.657
2693.657
2693.657
2693.657
2743.384
2693.657
2693.648
2693.671
2693.649
2693.648
2693.649
2693.648
2693.685
2693.660
2693.648
2693.648
2693.648
2693.648
2693.648
2693.648
2693.648
2693.648
2693.648
2693.648
2693.648
2693.648
2693.490
2693.490
2664.493
2664.486
2664.486
2662.518
2662.518
2662.518
2664.495
2662.518
2662.514
3040.536
2662.514
2662.470
2662.470
2662.470
2662.470
2662.493
2662.470
2662.470
2662.470
2662.422
2662.422
2662.450
2660.045
2660.045
2660.045
2659.957
2659.957
2659.957
2659.957
2671.351
2659.957
2659.957
2659.957
2659.913
2666.557
2659.913
2659.913
2659.913
2659.913
2696.570
2659.913
2659.913
2659.913
2659.913
2659.913
2659.913
2659.916
2659.913
2659.913
2659.913
2659.905
2659.905
2659.905
2659.905
2677.075

Error results for SA
---------------------------
3000.102
3000.102
3000.802
3000.802
3000.802
3000.802
3000.802
3000.802
3000.802
3000.802
3000.802
3000.802
3000.802
3000.802
3000.802
3000.802
3000.802
3000.802
3000.802
3000.802
3000.802
3277.699
3277.699
3277.699
3277.699
3277.699
3277.699
3277.699
3277.699
3270.310
3270.310
3270.310
3270.310
3270.310
3270.310
3267.057
3267.057
3267.057
3266.353
2874.198
2874.198
2874.198
2874.198
2874.198
2874.198
2874.198
2874.198
2874.198
2874.198
2874.198
2874.198
2874.198
2874.198
2874.198
2874.198
2811.254
2825.773
2825.773
2825.773
2825.773
2858.713
2833.792
2833.792
2835.996
2835.996
2835.996
2835.996
2835.996
2835.996
2835.996
2835.996
2835.996
2835.844
2835.844
2835.810
2835.813
2835.939
2835.939
2835.939
2835.939
2835.939
2835.939
2835.939
2835.939
2831.801
2831.801
2831.801
2831.801
2831.801
3095.571
3095.571
3095.568
3095.568
3095.568
3095.568
3095.568
3095.568
3093.917
3093.914
3093.914
3093.914
3093.914
3094.013
3094.013
3094.013
3094.013
3094.013
3094.013
3141.977
3200.349
3200.349
3200.349
3200.355
3200.355
3947.618
3947.618
3947.618
3947.618
3947.618
3947.618
3947.618
3947.618
3947.618
3947.618
3947.618
3947.618
7637.195
7637.195
7637.195
7637.195
7637.195
7637.195
6903.167
6903.167
7382.186
7382.186
7382.186
7382.186
7382.186
7382.186
7382.186
7382.186
7382.186
7382.186
7382.186
7382.186
7382.186
7382.186
7382.186
7382.186
7382.186
7382.186
7382.186
7382.186
7382.186
7382.186
7382.186
7382.186
7382.186
7382.186
7382.186
7382.186
7382.186
7382.186
7382.186
7762.912
7762.912
7762.912
7762.912
6580.805
6580.805
6580.805
6580.805
6580.805
6580.805
6580.805
6580.805
6580.805
6580.805
6580.805
6580.805
6580.805
6580.805
6580.805
6580.805
6580.805
6580.805
6580.805
5665.125
5665.125
5665.125
5665.125
5665.125
5665.125
5665.125
5665.125
7038.240
7038.240
7038.240
7038.240
7038.240
7038.240
7038.240
7038.240
7038.240
7038.240
7038.240
7038.240
7038.240
7038.240
7038.240
7038.240
7038.240
7038.240
7038.240
7038.240
7038.240
7038.240
7038.240
7038.240
7038.240
7038.240
7038.240
7038.240
7038.240
7038.240
7038.240
7038.240
7038.240
7038.240
7038.240
7038.240
7038.240
7038.240
7038.240
7038.240
7038.240
7038.240
7038.240
7038.240
7038.240
7038.240
7038.240
7038.240
7038.240
7038.240
7038.240
7038.240
7038.240
7038.240
7038.240
7038.240
7038.240
7038.240
7038.240
7038.240
7038.240
7038.240
7038.240
7038.240
7038.240
7038.240
7038.240
7038.240
7038.240
7038.240
7038.240
7038.240
7038.240
7038.240
7038.240
4772.057
4772.057
4772.057
6002.322
6002.322
6002.353
6002.353
6002.353
6002.353
6002.353
6002.353
6002.353
6001.011
6001.011
6001.011
6001.011
6001.011
6001.011
6001.005
6000.804
6000.804
6000.804
6000.804
6000.804
6000.804
4910.695
4910.695
4910.695
4910.695
4910.695
4910.695
4910.695
4910.695
4910.695
4910.695
4910.695
4910.695
4910.695
4910.695
4485.973
4464.929
4464.929
4464.929
4464.929
4464.915
4464.915
4464.915
4464.915
4464.915
4464.915
4464.915
4464.915
4464.915
4464.915
4464.915
4464.915
4464.915
3618.276
3618.276
3618.276
3618.276
3618.276
3618.276
3618.276
3618.276
3618.276
3619.088
3619.088
4696.885
4696.885
4696.885
4696.885
3704.053
3704.053
3704.053
3704.053
3704.053
3704.053
3704.053
3704.053
3720.235
3720.235
3720.235
3720.235
3720.235
3720.235
3720.235
3072.156
3072.156
3072.156
3072.156
3072.156
3072.156
3072.156
3072.156
3072.156
3072.156
3072.156
3072.156
3072.156
3072.156
3072.156
3072.156
3072.156
3072.156
3072.156
3072.156
3072.156
3072.156
3072.156
3072.156
3072.156
3072.156
3072.156
3072.156
3072.156
3072.156
3072.156
3070.227
3070.227
3070.227
3070.227
3070.227
3070.227
3070.227
3070.227
3070.227
3070.227
3070.227
3070.227
3070.227
3070.227
3070.227
3070.227
3070.227
3070.227
3070.227
3070.227
3070.227
3070.227
3070.227
3070.227
3070.227
3070.227
3070.227
3070.227
3070.227
3070.227
3070.227
3070.227
3070.227
3070.227
3070.227
3070.227
3070.227
3070.227
3070.227
3070.227
3070.227
3070.227
3070.227
3070.227
3070.227
3070.227
3070.227
3070.227
3070.227
3070.227
3070.227
3070.227
3070.227
3070.227
3070.227
2870.525
2870.525
2870.525
2870.525
2870.525
2870.525
2870.525
2870.525
2870.525
2870.525
2870.525
2870.525
2796.661
2796.661
2796.661
2796.661
2796.661
2796.661
2842.529
2842.529
2842.529
2974.374
2971.773
2971.773
2971.773
2971.773
2971.773
2971.773
2971.773
2971.773
2971.773
2861.818
2861.818
2703.455
2699.918
2699.918
2699.918
2699.918
2699.918
2699.918
2699.918
2699.918
2699.918
2699.918
2699.918
2699.918
2699.918
2699.918
2699.918
2699.918
2699.918
2699.918
2809.858
2809.858
2809.858
2809.858
2821.377
2821.377
2821.377
2821.377
2821.377
2821.377
2821.377
2821.377
2821.377
2821.377
2821.377
2821.377
2821.377
2821.377
2821.377
2821.377
2821.377
2821.377
2821.377
2821.377
2821.377
2821.377
2821.377
2821.377
2821.377
2821.377
2821.377
2821.377
2821.377
2821.377
2821.377
2821.377
2821.377
2821.377
2821.377
2821.377
2821.377
2821.377
2813.918
2813.918
2813.918
2813.918
2813.918
2813.918
2813.918
2813.918
2813.918
2813.918
2811.127
2811.127
2811.127
2811.127
2811.127
2811.127
2811.127
2811.127
2811.127
2811.127
2811.127
2811.127
2811.127
2811.127
2811.127
2820.118
2820.118
2820.118
2820.118
2820.118
2820.118
2820.118
2820.118
2820.005
2827.364
2827.364
2827.364
2827.364
2827.364
2827.364
3012.159
3012.159
3012.159
3012.159
3012.159
3012.159
3012.159
3012.159
3012.159
3012.159
3012.159
3012.159
3375.372
3375.372
3375.372
3375.372
3266.226
3266.226
3266.226
3266.226
3266.226
3266.226
3266.226
3266.226
3266.226
3266.226
3266.226
3266.226
3266.226
3266.226
3266.226
3266.226
3266.226
3266.226
3266.226
3266.226
3266.226
3266.226
3266.226
3266.226
3266.226
3266.226
3266.226
3266.226
3266.226
3266.226
3266.226
3266.226
3263.207
3263.207
3263.207
3263.207
3263.207
3263.207
3263.207
3263.207
3263.207
3263.207
3263.207
3263.207
3263.321
3263.321
3263.321
3263.321
3263.321
3263.321
3263.321
3263.321
3263.321
3263.321
3263.321
3263.321
3263.321
3263.321
3263.321
3393.118
3263.321
3263.321
3491.813
3491.813
3491.813
3491.813
3491.813
3877.381
3877.381
3877.381
3877.381
3143.042
3143.042
3143.042
3143.042
3143.042
3143.042
3143.042
3143.042
3143.042
3143.042
3143.042
3144.312
3144.312
3144.312
3145.240
3145.240
3145.240
3144.102
3144.102
3144.102
3144.068
3144.068
3144.068
3144.068
3144.068
3144.068
3144.068
3144.068
3144.068
3144.068
3144.068
3144.068
3534.926
3534.926
3536.067
3536.067
3536.067
4009.433
3536.067
2843.529
2968.448
2843.529
2843.529
2843.529
3031.556
3031.556
3031.556
3031.556
3031.556
3031.556
3031.556
3031.556
2833.183
2833.183
2833.183
2833.183
2820.497
2820.497
2819.557
2819.557
2819.557
2819.557
2819.557
2819.557
2819.557
2819.557
2819.557
2819.557
2819.557
3031.162
2819.557
2819.557
2819.557
2819.557
2819.557
2819.557
2819.557
2819.557
2819.557
2819.557
2819.557
2827.913
2827.913
2827.913
2827.913
2827.913
2827.913
2827.913
2830.073
2850.149
2850.149
2850.149
2850.149
2850.149
2850.149
2850.149
2850.149
2850.149
2850.149
2850.149
2850.149
2850.149
2821.058
2911.421
2821.058
2820.539
2820.539
2820.539
2820.539
2820.539
2820.539
2820.539
2820.539
2820.539
2820.539
2820.539
2820.539
2820.539
2820.539
2886.825
2820.539
2820.539
2820.539
2820.539
2820.539
2820.539
2820.539
2810.211
2810.211
2810.211
2810.211
2810.211
2810.211
2810.211
2810.211

Error results for GA
---------------------------
6256.522
2877.813
2908.017
2863.236
5551.015
2822.713
2818.171
2818.171
5041.056
2879.091
2823.636
2999.606
5055.075
6429.122
3025.418
3013.334
3258.862
3702.882
2893.526
2813.016
2829.940
3019.324
3291.615
2797.664
3314.192
2953.750
2791.908
2893.277
3074.913
2814.198
2829.789
2815.321
2962.202
3190.033
6162.183
2812.103
3038.220
2816.513
3754.070
3048.335
2934.645
2906.238
2980.183
3839.273
2768.832
3192.171
3168.205
2854.718
2951.424
2699.789
3574.508
2842.473
3144.786
3144.786
2810.289
2824.474
2846.181
2825.364
2835.712
2906.688
2720.386
2842.919
2964.081
2816.992
2831.516
2765.982
2627.719
2874.597
2897.675
3085.005
2819.572
2977.839
2680.126
2662.110
2983.193
2692.372
2843.699
2835.238
2795.705
2819.865
2651.197
2692.803
2835.107
2756.690
3027.356
2860.774
2819.073
2925.522
2851.114
2866.550
3017.682
2806.678
3265.986
2856.101
2850.418
2654.379
2770.093
2760.452
2631.067
3059.809
2850.166
2753.307
2715.671
2845.385
3510.766
2735.944
2791.200
2742.028
2812.167
2641.422
3047.406
3030.899
2639.848
2718.323
2676.416
2742.767
2786.297
2685.649
2528.835
2528.835
2644.275
2846.589
2809.877
2659.027
2690.511
2725.850
2687.918
2672.707
2626.349
2673.505
2620.306
2730.722
2821.798
2778.741
2520.432
2637.658
2727.273
2631.103
2652.621
2687.281
2631.171
2691.935
2619.270
2642.684
2719.997
2720.046
2702.035
2731.875
2647.785
2685.631
2790.677
2734.541
2688.545
2689.669
2689.669
2692.511
2706.441
2636.255
2666.594
2645.833
2766.069
2639.694
2680.478
2693.931
2753.310
2693.518
2686.806
2614.279
2636.600
2657.110
2902.723
2794.040
2630.459
2643.034
2924.184
2652.768
2644.453
2635.872
2765.904
2643.121
2630.684
2638.479
2849.152
2867.674
2642.808
2772.219
2640.342
2672.884
2675.707
2695.029
2645.759
2634.158
2641.013
2730.635
2664.403
2658.448
2820.775
2710.347
2628.137
2625.609
2640.369
2825.674
2704.329
2628.816
2649.059
2647.559
2645.802
2633.527
2636.850
2644.976
2752.948
2641.573
2632.280
2642.719
2639.984
2683.228
2656.807
2638.040
2664.335
2684.715
2633.954
2703.618
2630.992
2642.109
2625.563
2626.631
2850.899
2634.646
2595.402
2626.572
2648.139
2624.675
2673.411
2637.738
2637.652
2643.011
2667.752
2669.136
2636.100
2786.382
2602.128
2647.160
2653.706
2653.014
2650.845
2657.526
2721.441
2631.603
2651.174
2634.491
2924.767
2634.491
2597.965
3081.494
2595.935
2595.935
2611.146
2654.066
2677.613
2671.820
2705.988
2663.676
2707.429
2599.329
2707.738
2593.407
2633.154
2821.089
2643.716
2657.830
2664.626
2648.641
2712.579
2616.257
2629.190
2677.345
2615.165
2674.625
2628.120
2661.975
2764.219
2705.507
2647.394
2776.669
2639.173
2663.276
2629.026
2625.686
2632.267
2869.483
2722.783
2561.920
2721.821
2629.518
2545.372
2651.473
2622.388
2790.696
2606.478
2638.304
2631.748
2545.966
2627.193
2683.620
2637.913
2615.249
2538.983
2648.377
2646.073
2701.800
2638.926
2660.584
2654.940
2639.092
2941.104
2584.070
2642.308
2777.044
2702.352
2574.602
2647.099
2533.207
2790.711
2591.201
2797.520
2638.981
2634.042
2561.726
2600.242
2600.783
2853.261
2655.346
2703.704
2592.124
2571.896
2570.905
2607.737
2819.900
2557.162
2629.447
2553.729
2638.968
2551.646
2692.538
2634.631
2589.706
2806.412
2650.037
2627.071
2826.412
2618.103
2692.158
2596.624
2650.028
2627.642
2745.524
2771.791
2744.522
2635.025
2529.018
2634.586
2647.848
2625.120
2678.790
2676.365
2586.761
2674.785
2601.152
2635.477
2683.007
2797.403
2589.294
2662.664
2761.477
2685.186
2617.680
2624.200
2586.809
2853.365
2660.410
2632.407
2630.503
2621.428
2643.513
2669.612
2815.597
2614.484
2614.484
2761.183
2546.488
2575.298
2536.278
2551.737
2522.464
2584.674
2669.665
2572.089
2594.042
2608.379
2718.392
2563.859
2631.500
2605.828
2563.724
2593.878
2766.806
2739.539
2845.334
2915.872
2649.556
2547.887
2635.188
2625.203
2609.733
2623.667
3168.135
2737.493
2708.645
2617.983
2628.588
2580.717
2630.224
2623.748
2583.394
2680.871
2608.588
2720.751
2567.722
2575.585
2669.209
2594.376
2639.176
2545.345
2922.015
2627.959
2577.409
2697.748
2695.467
2654.044
2614.609
2668.104
2604.893
2612.062
2657.860
2574.122
2631.527
2675.227
2673.020
2624.234
2603.532
2652.850
2655.011
2688.506
2571.501
2662.604
2679.132
2749.442
2627.465
2596.655
3315.782
2618.374
2624.938
2628.046
2605.601
2845.996
2587.453
2607.920
2697.569
2602.307
2598.329
2611.138
2563.801
2628.814
2611.802
2552.998
2604.558
2626.173
2552.184
2666.879
2564.685
2530.919
2576.497
2641.552
2588.886
2582.756
2653.157
2611.757
2611.522
2548.843
2693.545
2672.012
2634.847
2756.394
2644.544
3294.786
2558.473
2536.279
2576.345
2599.413
2530.838
2566.903
2530.838
2602.084
2802.346
2525.262
2741.390
2572.772
2615.146
2677.899
2615.472
2694.574
2580.064
2705.400
2668.634
2540.217
2577.093
2705.998
2566.058
2552.679
2663.921
2806.754
2665.396
2532.355
2605.758
2638.002
2568.087
2586.951
2605.558
2521.101
2598.025
2591.524
2519.144
2624.886
2713.983
2523.079
2562.837
2534.898
2520.243
2600.405
2825.184
2878.339
2512.703
2634.046
2533.314
2538.007
2587.386
2556.820
2585.069
2609.103
2574.573
2593.561
2588.107
2588.107
2522.069
2577.093
2576.288
2604.422
2572.012
2902.953
2541.080
2591.630
2600.312
2576.817
2783.839
2504.864
2560.692
2571.854
2567.313
2631.053
2578.575
2504.784
2537.155
2543.499
2603.717
2785.902
2576.696
2507.197
2513.305
2682.932
2705.273
2616.283
2655.712
2518.614
2777.062
2618.718
2655.689
2627.946
2629.441
2583.575
2575.487
2566.515
2539.955
2535.052
2565.721
2602.479
2745.969
2569.217
2720.898
2720.898
2702.391
2586.888
2509.759
2513.659
2610.292
2566.313
2775.034
2586.792
2530.919
2628.843
2609.017
2632.275
2583.054
2615.832
2687.978
2504.095
2499.903
2693.480
2729.450
2556.115
2631.006
2616.433
2575.926
2589.067
2505.760
2736.394
2506.706
2629.033
2495.281
2515.214
2512.986
2822.722
2528.741
2585.472
2660.246
2519.938
2500.162
2610.563
2656.710
3443.477
2627.935
2500.122
2713.140
2491.041
2581.950
2570.778
2583.765
2645.977
2516.047
2619.621
2509.651
2595.907
2577.928
2576.758
2515.794
2525.331
2508.372
2502.146
2595.912
2580.828
2655.456
2573.245
2470.350
2599.877
2500.516
2474.325
2502.210
2497.460
2719.688
2595.329
2581.195
2503.689
2525.073
2525.132
2490.152
2536.374
2503.974
2521.553
2593.178
2616.851
2511.342
2512.593
2568.905
2483.948
2493.924
2488.201
3012.573
2499.741
2564.100
2511.918
2650.186
2928.878
2601.207
2526.108
2526.398
2521.286
2493.224
2545.145
2724.112
2518.243
2551.817
2606.527
2521.346
2586.627
2634.956
2604.133
2519.610
2521.170
2505.154
2596.743
2497.177
2516.400
3185.845
2515.101
2512.807
2553.287
2484.864
2576.043
2511.540
2516.952
2533.216
2522.426
2516.088
2489.624
2519.634
2583.318
2521.610
2514.327
2524.267
2573.475
2531.202
2514.891
2709.434
2550.491
2529.473
2545.219
2554.945
2665.592
2515.074
2658.455
2487.860
2516.421
2659.561
2511.497
2522.698
2658.811
2770.248
2502.461
2519.195
2516.478
2594.014
2501.268
2525.138
2530.832
2510.204
2490.106
2489.474
2618.319
2509.252
2525.435
2526.840
2512.787
2502.337
2510.596
2510.596
2512.739
2535.495
2501.013
2495.206
2491.962
2492.206
2612.781
2502.355
2544.589
3420.365
2495.116
2496.234
2521.583
2544.311
2508.717
2491.087
2538.685
2519.579
2494.441
2495.473
2512.324
2593.873
2494.610
2532.986
2505.269
2489.918
2529.271
2562.968
2512.131
2534.250
2520.903
2833.595
2506.783
2497.640
2788.923
2533.757


Results for RHC:
Correctly classified (training set): 22945 instances.
Incorrectly classified (training set): 7217 instances.
Percent training set correctly classified: 76.073%

Correctly classified 11513 instances.
Incorrectly classified 3547 instances.
Percent correctly classified: 76.448%
Training time: 120.482 seconds
Testing time: 0.071 seconds


Results for SA:
Correctly classified (training set): 22654 instances.
Incorrectly classified (training set): 7508 instances.
Percent training set correctly classified: 75.108%

Correctly classified 11360 instances.
Incorrectly classified 3700 instances.
Percent correctly classified: 75.432%
Training time: 120.825 seconds
Testing time: 0.062 seconds


Results for GA:
Correctly classified (training set): 23714 instances.
Incorrectly classified (training set): 6448 instances.
Percent training set correctly classified: 78.622%

Correctly classified 11853 instances.
Incorrectly classified 3207 instances.
Percent correctly classified: 78.705%
Training time: 4838.220 seconds
Testing time: 0.069 seconds

