
Error results for RHC
---------------------------
3151.625
3151.625
3151.625
3151.640
3151.625
3151.625
3151.625
3151.625
3151.625
3154.874
3151.625
3018.955
3018.955
3023.690
3018.955
3409.990
4552.247
3018.954
3018.954
3018.954
3702.988
3018.954
3018.953
3018.953
3018.953
3018.953
3018.953
3018.953
3018.953
3018.952
3018.978
3018.952
3018.952
3018.952
3016.428
3016.428
3016.428
3016.428
3016.428
3016.428
3016.447
3016.428
3089.565
3016.428
3016.428
3016.428
3016.428
3016.428
3016.428
3016.428
3016.428
3016.426
3016.426
3016.426
3016.426
2744.088
2744.088
2837.878
2744.088
2744.088
2744.088
2744.088
2744.088
2744.088
2744.088
2744.953
2744.088
2744.088
2744.088
2744.088
2744.088
2744.088
2743.976
2743.976
2744.031
2743.976
2741.759
2741.759
2741.759
2741.759
2692.331
2692.331
2692.331
2739.513
2692.331
2692.127
2692.127
2692.127
2692.127
2692.126
2692.126
2692.126
2692.126
2692.126
2692.126
2692.126
2692.126
2739.114
2692.126
2692.126
2692.126
2692.126
2691.509
2691.509
2691.471
2691.471
2691.471
2691.683
2691.471
2691.471
2691.471
2691.471
2691.471
2691.471
2736.615
2691.471
2691.471
2691.471
2691.471
2691.471
2691.293
2691.293
2727.086
2691.293
2691.293
2691.293
2691.293
2738.015
2691.289
2691.289
2691.289
2691.502
2691.277
2691.277
2691.277
2691.277
2691.277
2691.326
6747.265
2691.277
2691.277
2691.402
2691.277
2691.277
2691.586
2691.262
2691.262
2691.262
2692.236
2691.262
2691.262
2691.262
2705.418
2691.262
2691.262
2691.262
2691.262
2691.262
2691.262
2691.262
2692.281
2691.262
2691.262
6747.251
2691.262
2691.262
2691.262
2691.262
2691.262
2691.262
2766.344
2691.262
2692.281
2692.036
2691.262
2691.262
2690.868
2690.868
2690.868
2690.773
2690.773
2690.773
2690.779
2690.773
2543.965
2543.965
2543.965
2543.965
2543.965
2543.965
2543.965
2543.965
2543.880
2543.880
2543.880
2543.880
2556.529
2536.001
2536.001
2536.001
2536.001
2536.001
2536.209
2536.001
2536.001
2536.001
2536.001
2536.001
2556.853
2535.582
2535.582
2535.582
2535.582
2535.582
2535.582
2535.582
2535.582
2535.582
2535.582
2535.582
2535.582
2535.582
2535.582
2535.582
2535.582
2535.580
2535.580
2535.580
2535.580
2535.580
2535.580
2535.580
2535.580
2570.750
2535.580
2535.580
2535.580
2535.580
2535.580
2535.582
2535.580
2535.580
2535.580
2535.580
2536.139
2673.732
2535.580
2535.580
2535.580
2535.580
2534.533
2534.533
2534.533
2534.533
2534.533
2534.533
2534.533
2534.533
2534.533
2534.533
2534.533
2534.615
2534.682
2537.779
2534.533
2534.533
2571.818
2534.533
2534.533
2534.533
2572.469
2534.533
2534.533
2534.533
2534.533
2534.533
2534.533
2534.533
2534.533
2534.533
2534.533
2534.533
2534.533
2534.535
2534.553
2534.533
2534.262
2534.262
2534.262
2534.262
2536.208
2534.262
2534.262
2534.262
2605.210
2534.262
2534.262
2534.262
2534.262
2534.262
2534.262
2534.262
2534.262
2534.262
2534.262
2534.262
2534.262
2534.262
2534.262
2534.262
2534.262
2534.262
2534.262
2534.262
2534.262
2534.262
2534.262
2537.772
2534.262
2534.262
2534.262
2534.262
2534.337
2545.233
2533.898
2533.898
2533.898
2533.898
2533.898
2533.898
2533.898
2533.898
2533.898
2533.898
2533.898
2533.898
2533.898
2533.898
2533.898
2533.898
2533.898
2533.898
2533.898
2533.898
2533.898
2533.898
2533.898
2533.922
2533.898
2533.898
2592.630
2533.898
2533.898
2533.898
2533.898
2533.898
2533.898
2533.898
2602.799
2533.898
2540.706
2533.898
2533.898
2543.222
2533.898
2533.898
2533.898
2532.911
2532.911
2532.911
2532.911
2532.911
6226.291
2551.492
2532.911
2532.911
2532.911
2532.911
2532.911
2551.707
2532.911
2609.404
2532.911
2532.911
2532.911
2532.911
2532.911
2532.911
2532.911
2532.911
2532.911
2532.911
2532.911
2565.427
2593.036
2532.911
2532.911
2532.911
2532.911
2532.911
2532.911
2532.911
2532.911
2532.911
2532.911
2532.911
2532.911
2534.181
2532.911
2532.911
2532.911
2532.911
2532.911
2532.911
2532.911
2532.911
2532.911
2532.911
2532.911
2532.911
2532.994
2532.911
2532.911
2532.911
2532.911
2532.911
2532.911
2532.911
2532.911
2532.911
2532.911
2532.911
2532.911
2533.840
2532.911
2532.911
2553.890
2532.911
2532.911
2532.451
2532.451
2532.451
2532.451
2532.451
2532.451
2532.451
2532.451
2532.451
2532.474
2532.451
2532.451
2532.451
2532.724
2532.451
2560.585
2532.451
2532.451
2532.451
2532.451
2532.447
2532.447
2532.949
2532.447
2532.447
2532.447
2532.447
2532.447
2532.447
2532.447
2532.447
2532.447
2532.447
2585.409
2532.447
2532.447
2532.447
2532.509
2532.447
2532.447
2565.062
2532.447
2532.689
2532.447
2532.447
2532.447
2532.447
2532.003
2531.953
2604.437
2531.953
2531.953
2531.953
2531.953
2531.953
2531.953
2531.916
2531.916
2531.916
2531.917
2531.916
2531.916
2531.916
2531.916
2531.916
2531.916
2531.918
2531.941
2531.916
2531.916
2531.916
2531.941
2531.916
2531.916
2531.916
2531.916
2531.906
2531.906
2538.672
2531.906
2532.017
2531.906
2531.906
2531.906
2531.906
2531.906
2531.940
2531.906
2531.906
2531.906
2531.906
2531.846
2531.847
2531.846
2531.846
2531.846
2531.846
2531.846
2531.847
2531.846
2531.846
2531.847
2565.127
2532.180
2531.846
2531.846
2531.846
2531.846
2531.846
2531.846
2531.846
2531.846
2531.846
2531.845
2531.845
2531.845
2531.845
2531.845
2531.820
2531.820
2531.820
2531.779
2531.778
2531.812
2533.770
2531.778
2531.778
2531.778
2531.778
2531.778
2531.778
2531.778
2531.778
2531.778
2531.778
2531.778
2531.778
2531.755
2531.755
2531.755
2531.769
2867.384
2531.755
2531.755
2531.755
2532.020
2531.867
2531.755
2531.755
2531.755
2531.755
2531.755
2531.755
2527.991
2527.991
2527.991
2527.991
2527.991
2527.991
2527.991
2527.991
2527.991
2527.991
2579.412
2528.327
2527.991
2527.991
2527.991
2527.991
2527.991
2527.911
2527.911
2527.911
2527.911
2527.911
2527.911
2527.911
2527.911
2527.911
2527.911
2527.911
2527.911
2527.911
2527.911
2527.911
2527.911
2527.911
2527.911
2527.911
2527.911
2527.911
2527.911
2527.907
2527.907
2527.907
2527.907
2527.907
2527.907
2527.907
2527.907
2527.907
2527.907
2527.907
2527.907
2527.907
2527.907
2527.907
2527.907
2528.215
2527.907
2527.907
2527.907
2527.907
2527.907
2527.907
2527.907
2527.906
2527.906
2527.906
2527.906
2527.906
2527.906
2527.906
2527.906
2527.906
2527.906
2527.906
2527.906
2527.906
2527.906
2527.906
2527.906
2527.906
2527.906
2527.906
2527.906
2527.906
2527.906
2527.906
2527.906
2527.906
2527.906
6224.201
2528.016
2527.906
2527.906
2527.906
2527.906
2527.906
2527.906
2527.906
2527.906
2869.658
2527.906
2527.906
2527.906
2527.906
2534.648
2527.906
2527.906
2527.906
2527.906
2527.906
2588.649
2527.906
2527.906
2527.906
2527.906
2527.906
2608.596
2527.906
2527.906
2527.906
2527.906
2527.906
2527.906
2527.906
2527.906
2527.906
2527.906
2527.906
2527.992
2527.906
2527.906
2527.906
2527.906
2527.906
2527.906
2527.906
2527.906
2527.906
2527.906
2600.671
2527.906
2527.906
2527.906
2527.906
2527.903
2527.903
2527.903
2527.903
2527.903
2527.903
2527.903
2527.903
2527.904
2527.903
2534.445
2527.903
2527.903
2527.903
2527.904
2536.676
2527.903
2527.903
2527.903
2527.903
2869.658
2527.903
2527.903
2527.903
2527.903
2527.903
2527.903
2527.903
2527.903
2527.903
2527.903
2527.903
2527.903
2528.312
2568.106
2527.903
2527.903
2527.903
2527.903
2527.964
2527.903
2527.903
2527.903
2527.903
2527.903
2527.903
2527.903
2529.554
2527.903
2527.903
2527.903
2527.903
2527.903
2527.903
2527.903
2528.137
2527.903
2527.903
2527.903
2527.903
2527.903
2527.903
2527.903
2527.903
2527.903
2527.903
2527.903
2527.903
2527.903
2527.903
2527.903
2527.903
2527.903
2527.903
2527.903
2591.385
2527.903
2527.903
2527.903
2528.027
2527.905
2527.903
2527.903
2527.903
2527.903
2527.854
2641.575
2527.854
2527.854
2527.854
2527.854
2597.795
2527.854
2527.854
2528.013
2527.854
2527.854
2527.854
2527.854
2528.420
2527.854
2528.126
2527.854
2527.854
2527.907
2527.854
2527.854
2527.854
2527.854
2527.854
2565.637
2527.854
2527.854
2527.854
2527.854
2527.854
6222.994
2527.886
2527.854
2527.854
2527.854
2527.854
2527.854
2527.854
2527.854
2527.854
2527.854
2527.879
2531.490
2527.854
2549.116
2527.854
2527.854
2527.854
2527.854
2527.854
2527.854
2527.854
2527.854
2527.854
2527.854
2527.854
2585.694
2527.854
2527.854
2527.854
2527.869
2527.854
2527.854
2527.854
2527.854
2527.854
2527.854
2527.854
2527.891
2527.854
2527.854
2527.854
2527.854
2527.854
2527.859
2544.856
2531.480
2689.790

Error results for SA
---------------------------
6866.842
6866.842
6866.842
6866.842
6866.843
6866.843
6866.843
6866.843
6866.166
6866.166
6866.166
6866.166
6866.166
6866.166
6866.166
6866.166
6866.166
6866.229
6866.229
6866.215
6866.215
6866.215
6866.215
6866.211
5719.941
4248.037
4248.037
4248.050
4248.050
4248.050
4248.050
4248.050
4248.050
4248.050
4248.050
4248.050
4248.042
4248.042
4248.042
4248.042
4248.042
4248.042
4248.043
4665.581
4665.581
4665.581
4665.581
4665.589
4665.589
4665.589
4666.676
4666.676
4666.676
4666.676
4666.676
4786.468
4035.759
4035.759
4035.759
4035.759
4035.759
4033.586
4033.586
4033.586
4033.586
4033.586
4777.704
4777.704
4777.704
4777.704
4777.704
4777.704
4777.704
4777.704
4777.704
4777.704
4777.704
4777.704
5206.174
5754.576
5754.576
5754.576
5754.576
5754.576
7073.845
7073.845
7073.845
7073.845
7073.846
7073.846
7073.846
7073.846
7073.846
7073.846
7073.846
7073.846
7073.846
7073.846
8250.447
7532.143
7532.143
6663.497
6663.497
6660.675
6660.675
6660.675
6660.675
6660.675
6660.675
6660.675
6660.675
6660.675
6660.675
6660.675
6660.675
6660.675
6660.734
6660.734
6660.734
6660.734
6660.734
5496.284
5496.284
5496.284
5496.284
5496.284
5248.424
5248.424
4951.041
4951.041
4951.041
4951.041
4951.041
4951.041
4951.041
5125.101
5125.101
5125.101
5125.101
5348.676
5348.676
5348.676
5348.676
5348.676
5345.012
5345.012
5345.012
5345.012
5345.012
5345.012
5345.012
5345.012
5345.012
5345.012
2603.651
2603.651
2603.651
2603.651
2603.651
2603.651
2603.651
2603.731
2603.731
2603.731
2603.731
2603.731
2603.869
2603.731
2603.731
2603.731
3443.189
3443.189
3443.189
3443.189
3443.189
3443.189
3443.189
3443.189
3443.189
3443.189
3443.189
2602.922
2602.885
2603.015
2603.015
2603.015
2603.015
2603.015
2602.898
2602.898
2602.898
2602.898
2602.898
2602.898
2602.898
2602.898
2602.898
2602.867
2602.867
2602.904
2602.945
2602.945
2602.945
2601.797
2601.797
2601.797
2601.797
2601.797
2601.797
2549.232
2550.930
2550.930
2553.411
2553.976
2553.976
2553.976
2553.976
2553.976
2717.894
2717.894
2717.894
2717.894
2717.894
2717.894
2717.894
2717.893
2717.904
2717.904
2717.904
2717.904
2717.904
2717.850
2717.352
2717.352
2717.618
2717.618
2717.618
2717.618
2618.622
2618.622
2618.622
2618.622
2618.622
5547.391
5547.391
5547.391
5547.391
5547.391
5547.391
4627.994
4627.994
4627.977
4627.977
4627.977
4627.977
4627.977
4627.977
4627.977
4627.977
4627.977
4627.977
4627.977
4627.977
4627.977
4627.977
4627.977
4627.977
4627.977
4627.977
4627.977
4627.977
4627.977
4627.977
4627.972
4627.972
4627.971
4627.971
4627.971
4627.971
4627.971
4628.021
4628.021
4628.021
4628.021
4628.021
4628.021
4628.021
4628.021
4628.021
4628.021
4627.980
4627.980
5148.740
5148.740
5148.740
5148.740
5148.740
7001.769
7001.769
7001.769
7001.769
7001.769
7001.769
7001.769
7001.769
7001.769
7001.769
7001.769
7001.027
7001.027
7001.027
7001.027
7001.027
7001.027
7001.027
7001.027
7001.029
7001.029
7001.029
7001.029
7001.029
7001.029
6547.340
6547.340
6547.340
6547.340
6547.340
6547.340
6547.340
6547.340
6547.340
6547.340
6547.340
6547.340
6547.337
6547.337
5981.770
5981.770
5981.770
5981.770
5981.770
5981.770
5981.770
5981.770
5981.770
5981.770
5981.770
5981.770
5981.770
5299.516
5299.516
5299.516
5299.516
5299.516
5299.516
5300.031
5300.031
5300.031
5300.031
5300.031
5299.773
5299.773
5299.773
4100.733
4100.733
4100.733
4091.751
4091.751
4091.751
4512.529
4512.529
4512.529
4512.529
4512.529
4512.529
3996.664
3996.664
4307.405
4307.405
4307.405
4307.405
4097.537
4097.537
4097.537
4097.537
3006.070
3006.070
3006.070
3006.070
3006.070
3004.608
2810.843
2810.850
2804.316
2804.316
2804.316
2804.316
2804.316
2804.316
2804.316
2804.316
2804.316
2804.316
5499.346
5499.346
5499.300
5499.300
5499.300
5499.300
5499.300
2840.622
2840.622
2840.622
2840.622
2840.622
2840.622
2840.622
2840.622
2833.132
2833.132
2833.132
2833.132
2833.132
2830.556
2830.556
2830.556
2830.504
2830.504
2830.439
2830.439
2830.439
2830.439
2830.439
2830.439
2830.439
2830.439
3646.876
3646.876
3646.876
3646.876
3646.876
3646.831
3661.979
3661.979
3661.979
3661.979
3661.979
3661.979
3661.979
3661.979
3661.979
3661.979
3661.979
3661.979
3661.979
3661.979
3666.109
3666.109
3666.109
3666.109
3666.109
3666.109
3670.698
3670.698
3670.698
3670.698
3670.698
3670.698
3670.698
3670.698
3673.796
3674.596
3674.596
3674.596
3674.596
3674.596
3674.596
3674.596
3674.596
3674.596
3674.596
3674.596
3674.596
3674.596
3674.596
3674.596
3674.596
3674.596
3674.596
3674.596
3679.957
3679.957
3679.957
3680.128
4656.486
4656.486
4656.486
4656.486
4656.653
4656.653
2665.646
2665.646
2665.646
2665.646
2665.646
2665.646
2665.646
2665.646
2665.646
2665.646
2665.646
2665.646
2665.524
2665.745
2665.745
2665.745
2665.745
2665.745
2665.745
2665.745
2665.745
2665.745
2665.745
2665.906
2676.352
4671.142
4671.142
7015.749
7015.749
7015.588
7015.588
7015.588
7015.588
7015.588
6164.869
6164.869
6164.869
6164.869
6164.869
6164.869
6164.869
6164.869
6164.879
6164.879
6164.879
7044.369
7041.463
7041.463
7041.463
7042.752
7042.752
7042.752
7042.752
7042.752
7042.752
7042.752
7042.752
7042.837
7042.837
7042.837
7042.837
7042.837
7042.837
7042.837
7042.837
7042.913
7042.913
7042.913
8125.937
8125.937
8125.937
8125.937
9108.248
9108.248
9108.248
9108.248
9108.248
9824.136
9731.961
9731.956
9731.956
9731.956
9731.956
9731.956
9731.956
9731.956
9731.956
9731.956
9731.956
9731.956
9731.956
9731.956
9731.956
9731.956
9731.956
9731.956
9731.974
9731.974
9731.961
9731.959
9731.959
9731.959
9731.959
9731.959
9731.959
9731.959
9731.959
9731.959
9731.959
9731.959
9731.959
9545.897
9545.897
9545.897
9545.897
9545.897
9545.897
9545.897
9545.897
10068.523
10068.523
10068.523
10065.771
10069.256
10069.256
10069.256
10069.256
10069.256
10069.256
10069.264
10069.264
10069.264
10069.264
10069.264
10069.264
10069.264
10036.695
10036.695
10036.695
10036.705
10036.705
10036.705
10036.705
10036.705
10036.705
10036.705
10036.705
10036.705
10036.786
10036.786
10036.786
9467.514
9467.514
9467.514
9467.514
9467.514
9467.514
9462.939
9462.939
9462.939
9479.057
9479.057
9479.057
9479.057
9479.057
9479.057
9479.057
9479.057
9601.623
9601.623
9601.623
9601.623
9601.623
9601.623
9601.963
9601.963
9601.963
9601.963
9601.848
9601.848
9601.848
9601.848
9601.848
9601.763
9601.763
9601.763
9601.763
9601.763
9601.763
9004.980
9004.980
9004.980
9004.980
9004.980
9004.980
9004.980
9004.980
9004.980
3830.441
3830.441
3830.441
3830.441
3830.441
3830.441
3830.317
3830.282
9004.584
3830.282
3830.282
3830.282
4699.221
3830.282
3830.344
3830.344
3830.344
3830.344
3830.344
3830.348
3830.348
3830.348
3830.348
3830.022
3830.022
3830.022
3829.955
3829.955
3829.955
3829.955
3829.955
3830.253
3830.253
3830.253
3830.253
3830.253
3830.253
3830.253
3830.253
3830.282
3830.282
3721.061
3721.061
3721.061
3721.061
3721.061
3721.061
3721.061
3721.061
3721.061
3721.061
3721.061
3721.061
3721.061
3721.061
3721.061
3721.061
3721.061
3721.061
3721.061
3721.061
4232.552
3721.061
3721.061
3721.061
3721.061
3721.061
3721.061
3721.061
3721.061
3721.061
3721.061
3721.061
3721.061
3721.061
3553.076
3553.076
3045.913
3045.913
3045.913
3045.913
3045.913
3045.913
3045.913
3045.913
3045.913
3045.913
3045.913
3045.913
3045.913
3045.913
3045.913
3199.089
3045.913
3045.913
3045.913
3001.845
3001.845
3001.845
3001.845
3001.845
3001.845
3001.845
3001.845
3001.845
3001.845
3001.845
2841.260
3029.935
2841.260
2841.260
2841.260
2841.260
2841.260
2841.260
2841.260
2841.260
2841.260
3465.116
2841.260
2841.260
2841.260
2841.260
2841.307
2841.307
2841.307
2841.307
2841.307
2841.307
2841.307
2841.307
2841.307
2841.332
2841.332
2841.332
2841.332
2841.332
2841.332
2841.393
2841.393
2841.393
2841.393
2841.393
2841.393
2841.393
2841.393
2841.393
2841.455
3377.160
2841.514
2841.514
2841.514
2841.514
2841.514
2841.514
2841.514
2841.514
2841.514
2841.514
2841.514
2841.514
2841.508
2841.508
2841.508
2841.508
2841.508
2841.508
2841.508
2841.508
2841.508
2841.508
3344.182
2841.425
2841.779
2841.425
2841.425
2841.425
2841.425
2841.425
2841.425
2841.425
2841.425
2841.425
2841.425
2841.440
2841.427
2841.427
2841.427
2841.427
2841.427
2841.427
2636.645
2636.645
2636.645
2636.645
2636.645
2636.403
2636.403
2636.403
2637.129
2636.403
2636.403

Error results for GA
---------------------------
7305.384
2818.054
2809.649
2827.990
2829.443
2850.016
2795.225
2996.751
4834.251
4395.158
2836.872
3727.957
2849.754
2820.460
2799.670
2859.341
3182.926
2799.288
2876.711
2851.731
2872.353
4253.836
2832.319
2864.234
3162.865
3303.758
2824.143
3075.229
2846.315
2821.443
3136.651
4334.399
2828.436
2803.168
2837.431
2815.548
2769.258
3470.927
2842.534
2917.301
2820.229
2862.629
2937.439
2847.773
2905.197
3017.901
2943.381
3158.313
2765.673
2795.302
2938.146
2878.055
3043.117
2800.196
2891.062
2811.494
2821.487
2815.697
2821.487
2820.215
2983.062
2837.515
2796.895
2835.659
2904.822
2847.159
2880.043
2940.161
2840.224
2813.295
2837.155
2841.681
2993.236
2949.973
2822.541
2949.574
3046.246
2791.418
2826.171
2860.098
3896.943
3171.278
3001.515
2820.899
2855.216
2855.241
2903.708
2772.964
2835.431
2900.329
2849.698
2759.071
2872.886
2821.207
2824.678
2795.646
2827.942
2846.863
3077.293
2766.003
2997.938
2938.968
2920.112
2835.716
2870.897
2886.523
2818.696
2843.377
2857.279
2870.027
2908.442
2997.423
2847.841
3068.724
3025.421
2811.040
3201.386
3182.870
2815.399
3164.197
2993.266
2843.382
2995.879
2841.430
2812.878
2948.683
2836.140
3284.875
2812.464
2923.802
2807.663
2932.625
2840.407
2929.897
2817.710
2840.061
2816.731
2917.274
2829.824
3216.113
2840.295
2921.512
3051.536
3237.063
2893.396
3137.020
2908.100
2823.750
3139.774
2817.069
2970.714
2993.149
3176.018
2822.192
3182.530
2758.625
3333.846
3194.085
3115.867
2830.758
3178.918
3080.694
3050.170
2930.184
2865.530
2869.791
2904.990
3080.158
2816.809
2839.422
2818.018
2889.161
2845.517
2950.095
2967.306
3332.339
3365.155
2905.204
2991.727
2818.979
3167.247
2794.046
2815.329
2837.641
3416.870
3441.327
2998.432
2936.119
3426.107
2820.567
3032.691
2994.688
2813.630
2800.980
3132.586
2859.598
2884.543
2954.906
3410.711
2816.947
2832.737
2868.096
2834.230
2727.352
2882.339
2769.439
3076.951
3067.714
2831.981
2996.940
2894.244
3158.443
2984.548
2829.348
3161.056
2978.651
2928.923
2920.815
2825.408
3142.493
2928.593
2842.068
3019.935
2968.972
2820.368
2843.130
2762.327
2856.488
2966.839
3120.887
2874.922
2816.676
2930.749
2804.792
2742.819
2828.075
3245.937
2826.046
2881.260
2863.929
3199.113
2883.579
2988.019
2841.652
2976.216
2817.812
2819.107
2828.028
2817.589
2875.887
3077.256
2828.602
3021.260
3006.891
2823.101
2888.910
2821.707
2943.190
2796.172
2984.359
2861.345
3006.689
2848.719
2934.171
2821.837
2817.948
2837.209
2950.797
2798.765
2826.500
2835.356
2945.659
2861.510
2835.356
2821.276
2841.530
2815.010
2850.704
2818.402
2823.479
2881.684
2823.954
2977.447
2952.431
2819.351
2908.071
2895.806
2826.989
2859.624
2854.629
2847.095
2966.559
2812.689
2812.689
2823.559
2820.576
2894.977
2860.127
2810.297
2981.728
2809.452
2822.886
2819.456
2810.700
3321.929
2894.110
2810.757
2853.082
2811.277
2816.641
2819.232
2836.909
2835.240
2808.944
2902.645
2861.017
2809.128
2839.225
2874.248
2869.793
2819.616
2809.385
2849.001
2869.793
2806.896
2850.579
2840.266
3127.349
2890.318
2864.271
2821.750
2832.004
2867.470
2803.178
2834.620
2923.966
2925.067
2869.547
2843.017
2812.594
2812.208
2909.682
2816.886
2862.112
2888.352
2809.270
2821.607
2961.206
2827.549
2862.563
2883.021
2883.211
2871.118
2819.697
2836.072
2838.836
2905.116
2951.899
2897.003
2847.640
2811.740
2811.728
2811.542
2835.210
2819.112
2831.133
2812.360
2814.544
2849.044
2834.255
2842.065
2869.070
2843.459
2803.656
2917.783
2836.074
2844.002
2926.052
2820.433
2824.015
2959.907
2824.470
2805.600
2994.873
2815.916
2809.404
2819.053
2859.185
2830.255
2849.212
2836.506
2809.462
2835.367
2832.413
2811.593
2832.392
2808.384
2810.460
2827.906
2865.755
3024.771
2820.801
2851.729
2842.694
2879.122
2815.560
3005.606
3007.138
2815.778
2827.944
2807.112
2889.495
2836.723
2866.970
2846.972
2814.728
2937.972
2917.618
2986.805
2823.539
2865.004
2797.676
2820.168
2833.214
2817.431
2836.963
2808.760
2811.340
3145.727
2816.359
2808.031
2829.923
2811.817
2825.174
2808.032
2835.953
2842.927
2811.597
2823.537
2851.328
2977.195
2881.888
2875.160
2858.093
2840.412
2832.646
2816.233
2834.070
2816.242
3033.805
2826.160
2831.557
2831.277
2833.375
2958.486
2837.181
2841.061
2855.457
2891.449
2819.377
2852.783
3027.903
2828.262
3032.699
2807.709
2819.269
2820.345
2855.994
2854.138
2893.549
2866.257
2892.647
2905.901
2882.651
2822.181
2819.310
2868.878
2820.040
2840.248
2836.417
2853.915
2870.346
2887.695
2865.696
2807.096
2804.299
2787.875
2913.228
2809.007
2931.923
2838.656
2873.597
2793.345
2824.598
2804.139
2816.076
2817.641
2794.133
2800.654
2786.751
2797.736
2797.735
2740.318
2918.538
2815.130
2810.152
2787.707
2750.561
2908.166
2742.344
2848.207
2809.175
2808.619
2849.277
2834.383
2831.436
2806.147
2837.620
2831.207
2830.547
2758.845
2843.355
2823.942
2842.781
2812.987
2879.399
2847.909
2820.017
2863.273
2804.502
2827.143
2753.996
2760.116
2796.476
2890.245
2810.153
2753.256
2808.371
2815.074
2824.244
2800.691
2839.629
2769.440
2803.766
2785.052
2796.209
2804.594
2815.301
2818.912
2815.301
2753.292
2875.906
2732.736
2727.585
2812.143
2854.705
2739.690
2740.454
2812.143
2729.339
2739.690
2805.893
2757.004
2777.559
2787.238
2746.985
2784.593
2802.577
2749.877
2830.038
2737.260
2812.667
2757.088
2810.945
2797.296
2805.973
2794.551
2848.782
2744.088
2809.413
2746.984
2778.084
2744.405
2741.579
2790.782
3016.923
2740.030
2737.072
2748.495
2790.706
2848.287
2739.953
2798.803
2737.219
2781.227
2730.295
2819.355
2742.467
2730.528
2736.919
2865.605
2729.826
2798.211
2803.492
2748.296
2741.948
2880.092
2795.120
2798.447
2743.063
2798.447
2733.667
2720.712
2730.533
2902.113
2722.961
2735.680
2664.984
2742.890
2837.872
2735.445
2802.916
2852.187
2809.926
2795.081
2812.344
2795.947
2815.783
2810.533
2745.182
2741.409
2808.122
2755.609
2630.878
2704.413
2657.223
2658.525
2785.323
2813.702
2746.784
2751.740
3065.953
2728.271
2676.405
2721.697
2793.248
2802.091
3024.073
2825.550
2805.053
2814.004
2731.390
2708.639
2774.122
2913.508
2742.186
2657.437
2924.602
2764.651
2897.809
2650.991
2860.658
2679.974
2642.977
2732.864
2842.347
2728.651
2735.310
2681.136
2828.644
2694.176
2705.374
2605.333
2685.664
2740.099
2673.656
2675.936
2805.447
2669.169
2794.932
2649.037
2650.191
2805.517
2584.261
2725.314
2738.270
2615.612
2656.600
2589.940
2639.744
2747.219
2925.462
2759.923
2655.668
2619.460
2644.974
2652.523
2831.098
2651.723
2799.470
2641.818
2677.381
2707.905
2616.198
2625.279
2730.673
2699.807
2656.723
2695.228
2700.199
2719.790
2587.690
2652.859
2730.608
2651.937
2646.684
2753.081
2754.850
2702.777
2591.111
2676.403
2941.608
2737.639
2640.146
2676.771
2804.458
2649.720
2591.261
2743.311
2628.672
2709.112
2650.668
2776.341
2774.526
2778.247
2803.413
3405.397
2865.334
2655.292
2761.210
4140.732
2668.395
2601.493
2648.901
2704.449
2664.975
2651.146
2740.617
2670.245
2608.269
2656.043
2671.822
2648.704
2672.514
2595.722
2676.471
2654.269
2652.744
2928.032
2674.422
2658.919
2656.206
2662.250
2624.101
2663.627
2642.968
2662.643
2710.064
2616.809
2667.165
2639.053
2684.244
2599.093
2716.814
2660.755
2597.879
2595.263
2666.249
2708.065
2650.537
2572.347
2616.726
2648.842
2633.325
2593.868
2609.099
2608.549
2624.519
2613.629
2650.198
2623.607
2572.361
2613.957
2688.814
2671.227
2633.480
2605.563
2604.481
2617.373
2616.659
2612.545
2606.428
2939.770
2629.365
2750.219
2721.515
2555.605
3013.770
2611.083
2610.940
2618.399
2608.789
2607.652
2625.618
2604.441
2599.725
2619.450
2608.860
2719.991
2616.632
2619.880
2710.662
2609.535
2610.379
2677.151
2594.251
2602.113
2613.861
2609.296
2660.679
2644.026
2652.446
2615.326
2652.762
2611.070
2790.266
2770.426
2617.666
2601.528
2617.002
2597.061
2603.778
2613.851
2606.933
2607.930
2635.103
2621.752
2612.147
2742.221
2619.740
2672.484
2590.871
2717.610
2624.383
2623.704
2621.355
2653.980
2633.296
2642.094
2621.528
2613.535
2643.786
2691.395
2648.728
2673.553
2591.852
2606.760
2620.528
2673.076
2580.533
2610.465
2601.524
2594.831
2670.901
2608.664
2593.436
2598.915
2672.746
2584.067
2605.120
2619.760
2655.166
2774.680
2601.473
2672.979
2657.664
2649.775
2651.439
2651.825
2719.918
2667.250
2620.241
2649.509
2617.267
2649.347
2620.204
2696.597
2615.010
2697.125
2620.385


Results for RHC:
Correctly classified (training set): 23719 instances.
Incorrectly classified (training set): 6443 instances.
Percent training set correctly classified: 78.639%

Correctly classified 11863 instances.
Incorrectly classified 3197 instances.
Percent correctly classified: 78.772%
Training time: 134.861 seconds
Testing time: 0.067 seconds


Results for SA:
Correctly classified (training set): 23397 instances.
Incorrectly classified (training set): 6765 instances.
Percent training set correctly classified: 77.571%

Correctly classified 11729 instances.
Incorrectly classified 3331 instances.
Percent correctly classified: 77.882%
Training time: 135.603 seconds
Testing time: 0.065 seconds


Results for GA:
Correctly classified (training set): 23721 instances.
Incorrectly classified (training set): 6441 instances.
Percent training set correctly classified: 78.645%

Correctly classified 11850 instances.
Incorrectly classified 3210 instances.
Percent correctly classified: 78.685%
Training time: 5552.812 seconds
Testing time: 0.069 seconds

