=== Run information ===

Scheme:       weka.classifiers.trees.J48 -C 0.25 -M 2
Relation:     letter_train-weka.filters.unsupervised.instance.Resample-S1-Z40.0-no-replacement
Instances:    6000
Attributes:   17
              lettr
              x-box
              y-box
              width
              high
              onpix
              x-bar
              y-bar
              x2bar
              y2bar
              xybar
              x2ybar
              xy2bar
              x-ege
              xegvy
              y-ege
              yegvx
Test mode:    10-fold cross-validation

=== Classifier model (full training set) ===

J48 pruned tree
------------------

y-bar <= 9
|   x2ybar <= 2
|   |   y2bar <= 3
|   |   |   x-ege <= 5: A (166.0/2.0)
|   |   |   x-ege > 5: M (9.0)
|   |   y2bar > 3
|   |   |   y-bar <= 5
|   |   |   |   x-box <= 5
|   |   |   |   |   x-bar <= 10
|   |   |   |   |   |   y-ege <= 4: L (177.0/1.0)
|   |   |   |   |   |   y-ege > 4: A (3.0/1.0)
|   |   |   |   |   x-bar > 10
|   |   |   |   |   |   onpix <= 2: J (14.0)
|   |   |   |   |   |   onpix > 2
|   |   |   |   |   |   |   x2ybar <= 1: A (4.0/1.0)
|   |   |   |   |   |   |   x2ybar > 1: Z (4.0)
|   |   |   |   x-box > 5
|   |   |   |   |   x-ege <= 4
|   |   |   |   |   |   yegvx <= 12
|   |   |   |   |   |   |   width <= 4: I (3.0)
|   |   |   |   |   |   |   width > 4: S (16.0/3.0)
|   |   |   |   |   |   yegvx > 12: Q (2.0)
|   |   |   |   |   x-ege > 4
|   |   |   |   |   |   y-bar <= 4: D (4.0)
|   |   |   |   |   |   y-bar > 4
|   |   |   |   |   |   |   x-box <= 9: R (3.0/2.0)
|   |   |   |   |   |   |   x-box > 9: N (2.0)
|   |   |   y-bar > 5
|   |   |   |   x-bar <= 6: M (3.0)
|   |   |   |   x-bar > 6
|   |   |   |   |   x2bar <= 1: X (2.0)
|   |   |   |   |   x2bar > 1
|   |   |   |   |   |   xegvy <= 7
|   |   |   |   |   |   |   y2bar <= 4: N (2.0/1.0)
|   |   |   |   |   |   |   y2bar > 4
|   |   |   |   |   |   |   |   x-bar <= 9
|   |   |   |   |   |   |   |   |   xybar <= 9: R (2.0)
|   |   |   |   |   |   |   |   |   xybar > 9: K (2.0)
|   |   |   |   |   |   |   |   x-bar > 9
|   |   |   |   |   |   |   |   |   yegvx <= 9
|   |   |   |   |   |   |   |   |   |   x-ege <= 5: K (2.0)
|   |   |   |   |   |   |   |   |   |   x-ege > 5: R (2.0)
|   |   |   |   |   |   |   |   |   yegvx > 9: R (11.0)
|   |   |   |   |   |   xegvy > 7: N (9.0)
|   x2ybar > 2
|   |   x-ege <= 1
|   |   |   y-ege <= 4
|   |   |   |   xegvy <= 7
|   |   |   |   |   xybar <= 10
|   |   |   |   |   |   x2bar <= 2: L (10.0/1.0)
|   |   |   |   |   |   x2bar > 2: C (15.0/1.0)
|   |   |   |   |   xybar > 10
|   |   |   |   |   |   x2bar <= 0: I (4.0/1.0)
|   |   |   |   |   |   x2bar > 0: J (140.0/1.0)
|   |   |   |   xegvy > 7
|   |   |   |   |   xy2bar <= 9
|   |   |   |   |   |   x-ege <= 0
|   |   |   |   |   |   |   x2ybar <= 4
|   |   |   |   |   |   |   |   y-box <= 3: L (2.0)
|   |   |   |   |   |   |   |   y-box > 3: J (4.0)
|   |   |   |   |   |   |   x2ybar > 4: I (177.0/1.0)
|   |   |   |   |   |   x-ege > 0
|   |   |   |   |   |   |   x2ybar <= 9
|   |   |   |   |   |   |   |   y2bar <= 6
|   |   |   |   |   |   |   |   |   xegvy <= 8: B (4.0/1.0)
|   |   |   |   |   |   |   |   |   xegvy > 8
|   |   |   |   |   |   |   |   |   |   y-bar <= 5: I (2.0)
|   |   |   |   |   |   |   |   |   |   y-bar > 5
|   |   |   |   |   |   |   |   |   |   |   x2bar <= 2
|   |   |   |   |   |   |   |   |   |   |   |   yegvx <= 8: F (6.0)
|   |   |   |   |   |   |   |   |   |   |   |   yegvx > 8: P (6.0)
|   |   |   |   |   |   |   |   |   |   |   x2bar > 2: P (27.0)
|   |   |   |   |   |   |   |   y2bar > 6
|   |   |   |   |   |   |   |   |   xy2bar <= 7: S (8.0)
|   |   |   |   |   |   |   |   |   xy2bar > 7: E (7.0/1.0)
|   |   |   |   |   |   |   x2ybar > 9: Y (11.0)
|   |   |   |   |   xy2bar > 9
|   |   |   |   |   |   x2bar <= 3: I (4.0)
|   |   |   |   |   |   x2bar > 3
|   |   |   |   |   |   |   xy2bar <= 10
|   |   |   |   |   |   |   |   x-bar <= 6: C (3.0)
|   |   |   |   |   |   |   |   x-bar > 6: G (2.0)
|   |   |   |   |   |   |   xy2bar > 10: C (109.0)
|   |   |   y-ege > 4
|   |   |   |   x-bar <= 5: E (56.0/1.0)
|   |   |   |   x-bar > 5
|   |   |   |   |   yegvx <= 9
|   |   |   |   |   |   y2bar <= 5
|   |   |   |   |   |   |   x2ybar <= 4: Z (2.0)
|   |   |   |   |   |   |   x2ybar > 4: B (16.0/1.0)
|   |   |   |   |   |   y2bar > 5
|   |   |   |   |   |   |   xybar <= 5: S (48.0)
|   |   |   |   |   |   |   xybar > 5
|   |   |   |   |   |   |   |   y2bar <= 8
|   |   |   |   |   |   |   |   |   x-box <= 4
|   |   |   |   |   |   |   |   |   |   y-ege <= 5
|   |   |   |   |   |   |   |   |   |   |   y2bar <= 7: S (15.0)
|   |   |   |   |   |   |   |   |   |   |   y2bar > 7
|   |   |   |   |   |   |   |   |   |   |   |   xy2bar <= 7: S (2.0)
|   |   |   |   |   |   |   |   |   |   |   |   xy2bar > 7: Z (3.0)
|   |   |   |   |   |   |   |   |   |   y-ege > 5: Z (21.0/1.0)
|   |   |   |   |   |   |   |   |   x-box > 4
|   |   |   |   |   |   |   |   |   |   onpix <= 2: E (6.0/1.0)
|   |   |   |   |   |   |   |   |   |   onpix > 2: I (2.0/1.0)
|   |   |   |   |   |   |   |   y2bar > 8: Z (113.0)
|   |   |   |   |   yegvx > 9
|   |   |   |   |   |   xy2bar <= 8: B (3.0/1.0)
|   |   |   |   |   |   xy2bar > 8: G (30.0)
|   |   x-ege > 1
|   |   |   y-ege <= 2
|   |   |   |   x-ege <= 3
|   |   |   |   |   xegvy <= 8
|   |   |   |   |   |   y-ege <= 0: H (57.0)
|   |   |   |   |   |   y-ege > 0
|   |   |   |   |   |   |   xy2bar <= 7
|   |   |   |   |   |   |   |   y2bar <= 7: D (20.0)
|   |   |   |   |   |   |   |   y2bar > 7: X (2.0)
|   |   |   |   |   |   |   xy2bar > 7
|   |   |   |   |   |   |   |   xybar <= 11
|   |   |   |   |   |   |   |   |   x-bar <= 6: K (32.0)
|   |   |   |   |   |   |   |   |   x-bar > 6
|   |   |   |   |   |   |   |   |   |   y2bar <= 4
|   |   |   |   |   |   |   |   |   |   |   y2bar <= 2: Q (2.0)
|   |   |   |   |   |   |   |   |   |   |   y2bar > 2: O (23.0/1.0)
|   |   |   |   |   |   |   |   |   |   y2bar > 4: H (6.0/1.0)
|   |   |   |   |   |   |   |   xybar > 11
|   |   |   |   |   |   |   |   |   xegvy <= 5: A (2.0)
|   |   |   |   |   |   |   |   |   xegvy > 5: J (4.0/1.0)
|   |   |   |   |   xegvy > 8
|   |   |   |   |   |   y2bar <= 3
|   |   |   |   |   |   |   x2bar <= 7
|   |   |   |   |   |   |   |   y-ege <= 1
|   |   |   |   |   |   |   |   |   xegvy <= 10: V (45.0/1.0)
|   |   |   |   |   |   |   |   |   xegvy > 10
|   |   |   |   |   |   |   |   |   |   x-bar <= 7: Y (2.0)
|   |   |   |   |   |   |   |   |   |   x-bar > 7: V (3.0)
|   |   |   |   |   |   |   |   y-ege > 1: Q (2.0)
|   |   |   |   |   |   |   x2bar > 7
|   |   |   |   |   |   |   |   y-bar <= 6: H (3.0)
|   |   |   |   |   |   |   |   y-bar > 6: U (2.0)
|   |   |   |   |   |   y2bar > 3
|   |   |   |   |   |   |   x2bar <= 3
|   |   |   |   |   |   |   |   y2bar <= 5: F (4.0/1.0)
|   |   |   |   |   |   |   |   y2bar > 5: Y (4.0/1.0)
|   |   |   |   |   |   |   x2bar > 3
|   |   |   |   |   |   |   |   x-ege <= 2
|   |   |   |   |   |   |   |   |   y2bar <= 5: U (3.0)
|   |   |   |   |   |   |   |   |   y2bar > 5: C (4.0)
|   |   |   |   |   |   |   |   x-ege > 2: U (165.0/1.0)
|   |   |   |   x-ege > 3
|   |   |   |   |   xegvy <= 7
|   |   |   |   |   |   y-bar <= 8
|   |   |   |   |   |   |   xybar <= 5: U (3.0/1.0)
|   |   |   |   |   |   |   xybar > 5
|   |   |   |   |   |   |   |   x-ege <= 5
|   |   |   |   |   |   |   |   |   x-box <= 3: M (6.0)
|   |   |   |   |   |   |   |   |   x-box > 3: U (2.0)
|   |   |   |   |   |   |   |   x-ege > 5: M (147.0)
|   |   |   |   |   |   y-bar > 8: N (4.0/1.0)
|   |   |   |   |   xegvy > 7
|   |   |   |   |   |   yegvx <= 10
|   |   |   |   |   |   |   x-ege <= 6
|   |   |   |   |   |   |   |   x2ybar <= 7
|   |   |   |   |   |   |   |   |   y-bar <= 6: U (4.0/1.0)
|   |   |   |   |   |   |   |   |   y-bar > 6
|   |   |   |   |   |   |   |   |   |   xy2bar <= 8: N (144.0/2.0)
|   |   |   |   |   |   |   |   |   |   xy2bar > 8
|   |   |   |   |   |   |   |   |   |   |   x-bar <= 6: N (8.0)
|   |   |   |   |   |   |   |   |   |   |   x-bar > 6: U (4.0)
|   |   |   |   |   |   |   |   x2ybar > 7
|   |   |   |   |   |   |   |   |   xybar <= 9
|   |   |   |   |   |   |   |   |   |   y2bar <= 4: W (10.0)
|   |   |   |   |   |   |   |   |   |   y2bar > 4: U (5.0)
|   |   |   |   |   |   |   |   |   xybar > 9: N (8.0)
|   |   |   |   |   |   |   x-ege > 6
|   |   |   |   |   |   |   |   y2bar <= 3: W (57.0)
|   |   |   |   |   |   |   |   y2bar > 3
|   |   |   |   |   |   |   |   |   x-ege <= 8: N (2.0/1.0)
|   |   |   |   |   |   |   |   |   x-ege > 8
|   |   |   |   |   |   |   |   |   |   x2ybar <= 6: M (2.0)
|   |   |   |   |   |   |   |   |   |   x2ybar > 6: W (2.0)
|   |   |   |   |   |   yegvx > 10: K (11.0/1.0)
|   |   |   y-ege > 2
|   |   |   |   xy2bar <= 7
|   |   |   |   |   x2ybar <= 7
|   |   |   |   |   |   xybar <= 10
|   |   |   |   |   |   |   y-ege <= 4
|   |   |   |   |   |   |   |   xegvy <= 7
|   |   |   |   |   |   |   |   |   x-ege <= 7
|   |   |   |   |   |   |   |   |   |   x2bar <= 7
|   |   |   |   |   |   |   |   |   |   |   x2ybar <= 5
|   |   |   |   |   |   |   |   |   |   |   |   y-bar <= 5: Q (2.0/1.0)
|   |   |   |   |   |   |   |   |   |   |   |   y-bar > 5
|   |   |   |   |   |   |   |   |   |   |   |   |   y2bar <= 6
|   |   |   |   |   |   |   |   |   |   |   |   |   |   x2ybar <= 3
|   |   |   |   |   |   |   |   |   |   |   |   |   |   |   yegvx <= 9: H (4.0)
|   |   |   |   |   |   |   |   |   |   |   |   |   |   |   yegvx > 9: R (6.0)
|   |   |   |   |   |   |   |   |   |   |   |   |   |   x2ybar > 3
|   |   |   |   |   |   |   |   |   |   |   |   |   |   |   y-ege <= 3
|   |   |   |   |   |   |   |   |   |   |   |   |   |   |   |   onpix <= 2: R (6.0)
|   |   |   |   |   |   |   |   |   |   |   |   |   |   |   |   onpix > 2: D (2.0)
|   |   |   |   |   |   |   |   |   |   |   |   |   |   |   y-ege > 3: R (32.0)
|   |   |   |   |   |   |   |   |   |   |   |   |   y2bar > 6: S (3.0/1.0)
|   |   |   |   |   |   |   |   |   |   |   x2ybar > 5
|   |   |   |   |   |   |   |   |   |   |   |   y-ege <= 3: D (2.0/1.0)
|   |   |   |   |   |   |   |   |   |   |   |   y-ege > 3
|   |   |   |   |   |   |   |   |   |   |   |   |   x-bar <= 6: G (3.0/1.0)
|   |   |   |   |   |   |   |   |   |   |   |   |   x-bar > 6: J (5.0/1.0)
|   |   |   |   |   |   |   |   |   |   x2bar > 7: N (6.0/1.0)
|   |   |   |   |   |   |   |   |   x-ege > 7: M (11.0)
|   |   |   |   |   |   |   |   xegvy > 7
|   |   |   |   |   |   |   |   |   x2bar <= 3
|   |   |   |   |   |   |   |   |   |   x-ege <= 4
|   |   |   |   |   |   |   |   |   |   |   y2bar <= 7
|   |   |   |   |   |   |   |   |   |   |   |   y-ege <= 3
|   |   |   |   |   |   |   |   |   |   |   |   |   xy2bar <= 6: D (4.0)
|   |   |   |   |   |   |   |   |   |   |   |   |   xy2bar > 6: H (7.0)
|   |   |   |   |   |   |   |   |   |   |   |   y-ege > 3: B (14.0/1.0)
|   |   |   |   |   |   |   |   |   |   |   y2bar > 7: X (5.0)
|   |   |   |   |   |   |   |   |   |   x-ege > 4
|   |   |   |   |   |   |   |   |   |   |   x2bar <= 1: F (7.0)
|   |   |   |   |   |   |   |   |   |   |   x2bar > 1
|   |   |   |   |   |   |   |   |   |   |   |   x-bar <= 8: R (2.0/1.0)
|   |   |   |   |   |   |   |   |   |   |   |   x-bar > 8
|   |   |   |   |   |   |   |   |   |   |   |   |   y-bar <= 6: M (2.0)
|   |   |   |   |   |   |   |   |   |   |   |   |   y-bar > 6: K (5.0)
|   |   |   |   |   |   |   |   |   x2bar > 3
|   |   |   |   |   |   |   |   |   |   yegvx <= 6
|   |   |   |   |   |   |   |   |   |   |   y-bar <= 7
|   |   |   |   |   |   |   |   |   |   |   |   xybar <= 6
|   |   |   |   |   |   |   |   |   |   |   |   |   y-box <= 6: P (2.0/1.0)
|   |   |   |   |   |   |   |   |   |   |   |   |   y-box > 6: M (2.0)
|   |   |   |   |   |   |   |   |   |   |   |   xybar > 6: H (3.0)
|   |   |   |   |   |   |   |   |   |   |   y-bar > 7
|   |   |   |   |   |   |   |   |   |   |   |   x2bar <= 4: I (2.0/1.0)
|   |   |   |   |   |   |   |   |   |   |   |   x2bar > 4: N (5.0)
|   |   |   |   |   |   |   |   |   |   yegvx > 6
|   |   |   |   |   |   |   |   |   |   |   y-bar <= 8
|   |   |   |   |   |   |   |   |   |   |   |   xy2bar <= 6
|   |   |   |   |   |   |   |   |   |   |   |   |   xegvy <= 9
|   |   |   |   |   |   |   |   |   |   |   |   |   |   x-box <= 6
|   |   |   |   |   |   |   |   |   |   |   |   |   |   |   y2bar <= 5
|   |   |   |   |   |   |   |   |   |   |   |   |   |   |   |   x2bar <= 6: D (4.0)
|   |   |   |   |   |   |   |   |   |   |   |   |   |   |   |   x2bar > 6
|   |   |   |   |   |   |   |   |   |   |   |   |   |   |   |   |   x-bar <= 7
|   |   |   |   |   |   |   |   |   |   |   |   |   |   |   |   |   |   onpix <= 3: O (3.0/1.0)
|   |   |   |   |   |   |   |   |   |   |   |   |   |   |   |   |   |   onpix > 3: D (2.0)
|   |   |   |   |   |   |   |   |   |   |   |   |   |   |   |   |   x-bar > 7: O (8.0)
|   |   |   |   |   |   |   |   |   |   |   |   |   |   |   y2bar > 5: D (124.0/5.0)
|   |   |   |   |   |   |   |   |   |   |   |   |   |   x-box > 6: H (2.0)
|   |   |   |   |   |   |   |   |   |   |   |   |   xegvy > 9: P (2.0/1.0)
|   |   |   |   |   |   |   |   |   |   |   |   xy2bar > 6
|   |   |   |   |   |   |   |   |   |   |   |   |   x2bar <= 5
|   |   |   |   |   |   |   |   |   |   |   |   |   |   x2bar <= 4: X (5.0)
|   |   |   |   |   |   |   |   |   |   |   |   |   |   x2bar > 4: D (2.0/1.0)
|   |   |   |   |   |   |   |   |   |   |   |   |   x2bar > 5
|   |   |   |   |   |   |   |   |   |   |   |   |   |   yegvx <= 7: H (4.0/1.0)
|   |   |   |   |   |   |   |   |   |   |   |   |   |   yegvx > 7: O (17.0/4.0)
|   |   |   |   |   |   |   |   |   |   |   y-bar > 8
|   |   |   |   |   |   |   |   |   |   |   |   xegvy <= 8: N (2.0)
|   |   |   |   |   |   |   |   |   |   |   |   xegvy > 8: P (9.0)
|   |   |   |   |   |   |   y-ege > 4
|   |   |   |   |   |   |   |   x-ege <= 2
|   |   |   |   |   |   |   |   |   yegvx <= 8
|   |   |   |   |   |   |   |   |   |   xybar <= 6
|   |   |   |   |   |   |   |   |   |   |   x2bar <= 4: X (4.0)
|   |   |   |   |   |   |   |   |   |   |   x2bar > 4: R (2.0/1.0)
|   |   |   |   |   |   |   |   |   |   xybar > 6
|   |   |   |   |   |   |   |   |   |   |   x-bar <= 8
|   |   |   |   |   |   |   |   |   |   |   |   x2bar <= 5
|   |   |   |   |   |   |   |   |   |   |   |   |   y-box <= 9: B (8.0/3.0)
|   |   |   |   |   |   |   |   |   |   |   |   |   y-box > 9: S (4.0)
|   |   |   |   |   |   |   |   |   |   |   |   x2bar > 5: S (24.0/1.0)
|   |   |   |   |   |   |   |   |   |   |   x-bar > 8: J (3.0/1.0)
|   |   |   |   |   |   |   |   |   yegvx > 8
|   |   |   |   |   |   |   |   |   |   y2bar <= 4: R (2.0/1.0)
|   |   |   |   |   |   |   |   |   |   y2bar > 4
|   |   |   |   |   |   |   |   |   |   |   xegvy <= 7
|   |   |   |   |   |   |   |   |   |   |   |   xy2bar <= 6: S (3.0)
|   |   |   |   |   |   |   |   |   |   |   |   xy2bar > 6: G (4.0/1.0)
|   |   |   |   |   |   |   |   |   |   |   xegvy > 7: B (102.0/4.0)
|   |   |   |   |   |   |   |   x-ege > 2
|   |   |   |   |   |   |   |   |   yegvx <= 5
|   |   |   |   |   |   |   |   |   |   y2bar <= 3
|   |   |   |   |   |   |   |   |   |   |   x-bar <= 7: S (10.0/1.0)
|   |   |   |   |   |   |   |   |   |   |   x-bar > 7
|   |   |   |   |   |   |   |   |   |   |   |   y2bar <= 2: W (2.0/1.0)
|   |   |   |   |   |   |   |   |   |   |   |   y2bar > 2
|   |   |   |   |   |   |   |   |   |   |   |   |   yegvx <= 3: Z (2.0)
|   |   |   |   |   |   |   |   |   |   |   |   |   yegvx > 3: J (8.0/1.0)
|   |   |   |   |   |   |   |   |   |   y2bar > 3
|   |   |   |   |   |   |   |   |   |   |   xy2bar <= 5
|   |   |   |   |   |   |   |   |   |   |   |   onpix <= 5: Y (6.0/1.0)
|   |   |   |   |   |   |   |   |   |   |   |   onpix > 5
|   |   |   |   |   |   |   |   |   |   |   |   |   x2bar <= 1: F (2.0)
|   |   |   |   |   |   |   |   |   |   |   |   |   x2bar > 1: I (4.0)
|   |   |   |   |   |   |   |   |   |   |   xy2bar > 5
|   |   |   |   |   |   |   |   |   |   |   |   x-ege <= 5
|   |   |   |   |   |   |   |   |   |   |   |   |   yegvx <= 4
|   |   |   |   |   |   |   |   |   |   |   |   |   |   high <= 5: N (2.0)
|   |   |   |   |   |   |   |   |   |   |   |   |   |   high > 5: J (3.0/1.0)
|   |   |   |   |   |   |   |   |   |   |   |   |   yegvx > 4: D (15.0/3.0)
|   |   |   |   |   |   |   |   |   |   |   |   x-ege > 5
|   |   |   |   |   |   |   |   |   |   |   |   |   x2ybar <= 6
|   |   |   |   |   |   |   |   |   |   |   |   |   |   x-ege <= 8
|   |   |   |   |   |   |   |   |   |   |   |   |   |   |   x2ybar <= 5: R (7.0/2.0)
|   |   |   |   |   |   |   |   |   |   |   |   |   |   |   x2ybar > 5: N (6.0/1.0)
|   |   |   |   |   |   |   |   |   |   |   |   |   |   x-ege > 8: M (7.0)
|   |   |   |   |   |   |   |   |   |   |   |   |   x2ybar > 6: D (2.0/1.0)
|   |   |   |   |   |   |   |   |   yegvx > 5
|   |   |   |   |   |   |   |   |   |   y-bar <= 5
|   |   |   |   |   |   |   |   |   |   |   y2bar <= 3: G (5.0/1.0)
|   |   |   |   |   |   |   |   |   |   |   y2bar > 3
|   |   |   |   |   |   |   |   |   |   |   |   xybar <= 7
|   |   |   |   |   |   |   |   |   |   |   |   |   x-ege <= 5: Q (11.0/1.0)
|   |   |   |   |   |   |   |   |   |   |   |   |   x-ege > 5: R (2.0/1.0)
|   |   |   |   |   |   |   |   |   |   |   |   xybar > 7
|   |   |   |   |   |   |   |   |   |   |   |   |   x-ege <= 4
|   |   |   |   |   |   |   |   |   |   |   |   |   |   y-box <= 8: O (3.0/1.0)
|   |   |   |   |   |   |   |   |   |   |   |   |   |   y-box > 8: Q (2.0)
|   |   |   |   |   |   |   |   |   |   |   |   |   x-ege > 4: D (4.0)
|   |   |   |   |   |   |   |   |   |   y-bar > 5
|   |   |   |   |   |   |   |   |   |   |   y2bar <= 3
|   |   |   |   |   |   |   |   |   |   |   |   x2ybar <= 5
|   |   |   |   |   |   |   |   |   |   |   |   |   y-ege <= 9: R (9.0)
|   |   |   |   |   |   |   |   |   |   |   |   |   y-ege > 9: S (2.0)
|   |   |   |   |   |   |   |   |   |   |   |   x2ybar > 5
|   |   |   |   |   |   |   |   |   |   |   |   |   y-ege <= 6
|   |   |   |   |   |   |   |   |   |   |   |   |   |   xybar <= 6: U (2.0/1.0)
|   |   |   |   |   |   |   |   |   |   |   |   |   |   xybar > 6: P (9.0/1.0)
|   |   |   |   |   |   |   |   |   |   |   |   |   y-ege > 6
|   |   |   |   |   |   |   |   |   |   |   |   |   |   x2ybar <= 6
|   |   |   |   |   |   |   |   |   |   |   |   |   |   |   x2bar <= 4: H (5.0)
|   |   |   |   |   |   |   |   |   |   |   |   |   |   |   x2bar > 4: O (2.0/1.0)
|   |   |   |   |   |   |   |   |   |   |   |   |   |   x2ybar > 6: B (6.0/1.0)
|   |   |   |   |   |   |   |   |   |   |   y2bar > 3
|   |   |   |   |   |   |   |   |   |   |   |   y-ege <= 5
|   |   |   |   |   |   |   |   |   |   |   |   |   x2bar <= 3
|   |   |   |   |   |   |   |   |   |   |   |   |   |   x2bar <= 2
|   |   |   |   |   |   |   |   |   |   |   |   |   |   |   xy2bar <= 5: I (7.0)
|   |   |   |   |   |   |   |   |   |   |   |   |   |   |   xy2bar > 5: J (2.0/1.0)
|   |   |   |   |   |   |   |   |   |   |   |   |   |   x2bar > 2
|   |   |   |   |   |   |   |   |   |   |   |   |   |   |   x-ege <= 4: B (5.0)
|   |   |   |   |   |   |   |   |   |   |   |   |   |   |   x-ege > 4: H (5.0)
|   |   |   |   |   |   |   |   |   |   |   |   |   x2bar > 3
|   |   |   |   |   |   |   |   |   |   |   |   |   |   x-bar <= 8
|   |   |   |   |   |   |   |   |   |   |   |   |   |   |   x-box <= 5
|   |   |   |   |   |   |   |   |   |   |   |   |   |   |   |   xy2bar <= 5: D (3.0)
|   |   |   |   |   |   |   |   |   |   |   |   |   |   |   |   xy2bar > 5
|   |   |   |   |   |   |   |   |   |   |   |   |   |   |   |   |   yegvx <= 7
|   |   |   |   |   |   |   |   |   |   |   |   |   |   |   |   |   |   y-bar <= 7: D (5.0/1.0)
|   |   |   |   |   |   |   |   |   |   |   |   |   |   |   |   |   |   y-bar > 7: B (2.0)
|   |   |   |   |   |   |   |   |   |   |   |   |   |   |   |   |   yegvx > 7: R (23.0/2.0)
|   |   |   |   |   |   |   |   |   |   |   |   |   |   |   x-box > 5
|   |   |   |   |   |   |   |   |   |   |   |   |   |   |   |   xybar <= 9: O (13.0/2.0)
|   |   |   |   |   |   |   |   |   |   |   |   |   |   |   |   xybar > 9: G (2.0)
|   |   |   |   |   |   |   |   |   |   |   |   |   |   x-bar > 8
|   |   |   |   |   |   |   |   |   |   |   |   |   |   |   x-ege <= 4
|   |   |   |   |   |   |   |   |   |   |   |   |   |   |   |   x-box <= 6: S (2.0/1.0)
|   |   |   |   |   |   |   |   |   |   |   |   |   |   |   |   x-box > 6: R (2.0)
|   |   |   |   |   |   |   |   |   |   |   |   |   |   |   x-ege > 4
|   |   |   |   |   |   |   |   |   |   |   |   |   |   |   |   x-box <= 6: U (2.0)
|   |   |   |   |   |   |   |   |   |   |   |   |   |   |   |   x-box > 6: H (2.0)
|   |   |   |   |   |   |   |   |   |   |   |   y-ege > 5
|   |   |   |   |   |   |   |   |   |   |   |   |   xybar <= 6
|   |   |   |   |   |   |   |   |   |   |   |   |   |   x-ege <= 7
|   |   |   |   |   |   |   |   |   |   |   |   |   |   |   x2bar <= 5
|   |   |   |   |   |   |   |   |   |   |   |   |   |   |   |   x-ege <= 4: X (13.0/1.0)
|   |   |   |   |   |   |   |   |   |   |   |   |   |   |   |   x-ege > 4: B (3.0/1.0)
|   |   |   |   |   |   |   |   |   |   |   |   |   |   |   x2bar > 5: B (5.0/1.0)
|   |   |   |   |   |   |   |   |   |   |   |   |   |   x-ege > 7: U (2.0/1.0)
|   |   |   |   |   |   |   |   |   |   |   |   |   xybar > 6
|   |   |   |   |   |   |   |   |   |   |   |   |   |   yegvx <= 10
|   |   |   |   |   |   |   |   |   |   |   |   |   |   |   x2bar <= 5
|   |   |   |   |   |   |   |   |   |   |   |   |   |   |   |   yegvx <= 6
|   |   |   |   |   |   |   |   |   |   |   |   |   |   |   |   |   y-box <= 8: R (2.0/1.0)
|   |   |   |   |   |   |   |   |   |   |   |   |   |   |   |   |   y-box > 8
|   |   |   |   |   |   |   |   |   |   |   |   |   |   |   |   |   |   x-ege <= 5: D (6.0)
|   |   |   |   |   |   |   |   |   |   |   |   |   |   |   |   |   |   x-ege > 5
|   |   |   |   |   |   |   |   |   |   |   |   |   |   |   |   |   |   |   xybar <= 8: N (2.0/1.0)
|   |   |   |   |   |   |   |   |   |   |   |   |   |   |   |   |   |   |   xybar > 8: B (3.0)
|   |   |   |   |   |   |   |   |   |   |   |   |   |   |   |   yegvx > 6
|   |   |   |   |   |   |   |   |   |   |   |   |   |   |   |   |   y2bar <= 4
|   |   |   |   |   |   |   |   |   |   |   |   |   |   |   |   |   |   x-bar <= 9
|   |   |   |   |   |   |   |   |   |   |   |   |   |   |   |   |   |   |   xy2bar <= 6
|   |   |   |   |   |   |   |   |   |   |   |   |   |   |   |   |   |   |   |   x2bar <= 3: F (2.0)
|   |   |   |   |   |   |   |   |   |   |   |   |   |   |   |   |   |   |   |   x2bar > 3: G (2.0)
|   |   |   |   |   |   |   |   |   |   |   |   |   |   |   |   |   |   |   xy2bar > 6
|   |   |   |   |   |   |   |   |   |   |   |   |   |   |   |   |   |   |   |   x2bar <= 4
|   |   |   |   |   |   |   |   |   |   |   |   |   |   |   |   |   |   |   |   |   high <= 7: R (2.0/1.0)
|   |   |   |   |   |   |   |   |   |   |   |   |   |   |   |   |   |   |   |   |   high > 7: F (2.0)
|   |   |   |   |   |   |   |   |   |   |   |   |   |   |   |   |   |   |   |   x2bar > 4: S (4.0/1.0)
|   |   |   |   |   |   |   |   |   |   |   |   |   |   |   |   |   |   x-bar > 9: J (2.0)
|   |   |   |   |   |   |   |   |   |   |   |   |   |   |   |   |   y2bar > 4
|   |   |   |   |   |   |   |   |   |   |   |   |   |   |   |   |   |   xegvy <= 9
|   |   |   |   |   |   |   |   |   |   |   |   |   |   |   |   |   |   |   x2bar <= 2
|   |   |   |   |   |   |   |   |   |   |   |   |   |   |   |   |   |   |   |   width <= 4: J (2.0)
|   |   |   |   |   |   |   |   |   |   |   |   |   |   |   |   |   |   |   |   width > 4: X (2.0/1.0)
|   |   |   |   |   |   |   |   |   |   |   |   |   |   |   |   |   |   |   x2bar > 2
|   |   |   |   |   |   |   |   |   |   |   |   |   |   |   |   |   |   |   |   high <= 8
|   |   |   |   |   |   |   |   |   |   |   |   |   |   |   |   |   |   |   |   |   x2ybar <= 4
|   |   |   |   |   |   |   |   |   |   |   |   |   |   |   |   |   |   |   |   |   |   x-bar <= 8: D (3.0/1.0)
|   |   |   |   |   |   |   |   |   |   |   |   |   |   |   |   |   |   |   |   |   |   x-bar > 8: B (6.0/1.0)
|   |   |   |   |   |   |   |   |   |   |   |   |   |   |   |   |   |   |   |   |   x2ybar > 4
|   |   |   |   |   |   |   |   |   |   |   |   |   |   |   |   |   |   |   |   |   |   y-ege <= 7: B (26.0/3.0)
|   |   |   |   |   |   |   |   |   |   |   |   |   |   |   |   |   |   |   |   |   |   y-ege > 7
|   |   |   |   |   |   |   |   |   |   |   |   |   |   |   |   |   |   |   |   |   |   |   xybar <= 7
|   |   |   |   |   |   |   |   |   |   |   |   |   |   |   |   |   |   |   |   |   |   |   |   onpix <= 7: I (3.0/1.0)
|   |   |   |   |   |   |   |   |   |   |   |   |   |   |   |   |   |   |   |   |   |   |   |   onpix > 7: D (2.0)
|   |   |   |   |   |   |   |   |   |   |   |   |   |   |   |   |   |   |   |   |   |   |   xybar > 7: B (5.0/1.0)
|   |   |   |   |   |   |   |   |   |   |   |   |   |   |   |   |   |   |   |   high > 8
|   |   |   |   |   |   |   |   |   |   |   |   |   |   |   |   |   |   |   |   |   onpix <= 7: J (2.0/1.0)
|   |   |   |   |   |   |   |   |   |   |   |   |   |   |   |   |   |   |   |   |   onpix > 7: F (3.0/1.0)
|   |   |   |   |   |   |   |   |   |   |   |   |   |   |   |   |   |   xegvy > 9: X (3.0/1.0)
|   |   |   |   |   |   |   |   |   |   |   |   |   |   |   x2bar > 5
|   |   |   |   |   |   |   |   |   |   |   |   |   |   |   |   xegvy <= 8
|   |   |   |   |   |   |   |   |   |   |   |   |   |   |   |   |   x-bar <= 6: H (2.0)
|   |   |   |   |   |   |   |   |   |   |   |   |   |   |   |   |   x-bar > 6: B (9.0/1.0)
|   |   |   |   |   |   |   |   |   |   |   |   |   |   |   |   xegvy > 8
|   |   |   |   |   |   |   |   |   |   |   |   |   |   |   |   |   x-box <= 4: I (2.0/1.0)
|   |   |   |   |   |   |   |   |   |   |   |   |   |   |   |   |   x-box > 4: P (2.0/1.0)
|   |   |   |   |   |   |   |   |   |   |   |   |   |   yegvx > 10
|   |   |   |   |   |   |   |   |   |   |   |   |   |   |   xybar <= 7
|   |   |   |   |   |   |   |   |   |   |   |   |   |   |   |   x2ybar <= 6: K (7.0)
|   |   |   |   |   |   |   |   |   |   |   |   |   |   |   |   x2ybar > 6: S (3.0/1.0)
|   |   |   |   |   |   |   |   |   |   |   |   |   |   |   xybar > 7
|   |   |   |   |   |   |   |   |   |   |   |   |   |   |   |   y-bar <= 7: B (2.0)
|   |   |   |   |   |   |   |   |   |   |   |   |   |   |   |   y-bar > 7
|   |   |   |   |   |   |   |   |   |   |   |   |   |   |   |   |   xy2bar <= 6: D (2.0)
|   |   |   |   |   |   |   |   |   |   |   |   |   |   |   |   |   xy2bar > 6: R (4.0)
|   |   |   |   |   |   xybar > 10
|   |   |   |   |   |   |   high <= 8
|   |   |   |   |   |   |   |   y2bar <= 5
|   |   |   |   |   |   |   |   |   yegvx <= 9
|   |   |   |   |   |   |   |   |   |   xy2bar <= 6
|   |   |   |   |   |   |   |   |   |   |   y-ege <= 6: P (28.0/4.0)
|   |   |   |   |   |   |   |   |   |   |   y-ege > 6: J (2.0/1.0)
|   |   |   |   |   |   |   |   |   |   xy2bar > 6: S (2.0/1.0)
|   |   |   |   |   |   |   |   |   yegvx > 9: I (9.0)
|   |   |   |   |   |   |   |   y2bar > 5
|   |   |   |   |   |   |   |   |   yegvx <= 7
|   |   |   |   |   |   |   |   |   |   x-ege <= 3
|   |   |   |   |   |   |   |   |   |   |   x2bar <= 3
|   |   |   |   |   |   |   |   |   |   |   |   xy2bar <= 6
|   |   |   |   |   |   |   |   |   |   |   |   |   y2bar <= 7: F (12.0/2.0)
|   |   |   |   |   |   |   |   |   |   |   |   |   y2bar > 7: T (6.0/1.0)
|   |   |   |   |   |   |   |   |   |   |   |   xy2bar > 6
|   |   |   |   |   |   |   |   |   |   |   |   |   yegvx <= 6: T (5.0)
|   |   |   |   |   |   |   |   |   |   |   |   |   yegvx > 6: S (2.0)
|   |   |   |   |   |   |   |   |   |   |   x2bar > 3: S (2.0)
|   |   |   |   |   |   |   |   |   |   x-ege > 3: X (2.0/1.0)
|   |   |   |   |   |   |   |   |   yegvx > 7
|   |   |   |   |   |   |   |   |   |   xybar <= 11
|   |   |   |   |   |   |   |   |   |   |   y-ege <= 4
|   |   |   |   |   |   |   |   |   |   |   |   x2bar <= 2
|   |   |   |   |   |   |   |   |   |   |   |   |   xy2bar <= 6: P (2.0/1.0)
|   |   |   |   |   |   |   |   |   |   |   |   |   xy2bar > 6: X (4.0/1.0)
|   |   |   |   |   |   |   |   |   |   |   |   x2bar > 2: D (13.0)
|   |   |   |   |   |   |   |   |   |   |   y-ege > 4
|   |   |   |   |   |   |   |   |   |   |   |   x2bar <= 3: B (3.0)
|   |   |   |   |   |   |   |   |   |   |   |   x2bar > 3
|   |   |   |   |   |   |   |   |   |   |   |   |   y2bar <= 7: D (2.0/1.0)
|   |   |   |   |   |   |   |   |   |   |   |   |   y2bar > 7: S (2.0)
|   |   |   |   |   |   |   |   |   |   xybar > 11
|   |   |   |   |   |   |   |   |   |   |   y-ege <= 3: F (8.0)
|   |   |   |   |   |   |   |   |   |   |   y-ege > 3
|   |   |   |   |   |   |   |   |   |   |   |   xy2bar <= 5: P (8.0/2.0)
|   |   |   |   |   |   |   |   |   |   |   |   xy2bar > 5: F (3.0)
|   |   |   |   |   |   |   high > 8
|   |   |   |   |   |   |   |   x2bar <= 3: J (11.0)
|   |   |   |   |   |   |   |   x2bar > 3: Z (5.0)
|   |   |   |   |   x2ybar > 7
|   |   |   |   |   |   x-ege <= 5
|   |   |   |   |   |   |   xybar <= 10
|   |   |   |   |   |   |   |   yegvx <= 7
|   |   |   |   |   |   |   |   |   y-ege <= 3
|   |   |   |   |   |   |   |   |   |   y-bar <= 8
|   |   |   |   |   |   |   |   |   |   |   x-box <= 4: F (2.0/1.0)
|   |   |   |   |   |   |   |   |   |   |   x-box > 4: Y (2.0)
|   |   |   |   |   |   |   |   |   |   y-bar > 8: F (6.0/1.0)
|   |   |   |   |   |   |   |   |   y-ege > 3
|   |   |   |   |   |   |   |   |   |   onpix <= 6
|   |   |   |   |   |   |   |   |   |   |   yegvx <= 6: Y (25.0)
|   |   |   |   |   |   |   |   |   |   |   yegvx > 6
|   |   |   |   |   |   |   |   |   |   |   |   x-box <= 6: P (2.0)
|   |   |   |   |   |   |   |   |   |   |   |   x-box > 6: Y (2.0)
|   |   |   |   |   |   |   |   |   |   onpix > 6: P (4.0/1.0)
|   |   |   |   |   |   |   |   yegvx > 7
|   |   |   |   |   |   |   |   |   y-ege <= 6: O (4.0/1.0)
|   |   |   |   |   |   |   |   |   y-ege > 6: I (2.0)
|   |   |   |   |   |   |   xybar > 10
|   |   |   |   |   |   |   |   x-ege <= 3
|   |   |   |   |   |   |   |   |   y-ege <= 5: S (5.0)
|   |   |   |   |   |   |   |   |   y-ege > 5: Z (5.0)
|   |   |   |   |   |   |   |   x-ege > 3: Y (2.0)
|   |   |   |   |   |   x-ege > 5
|   |   |   |   |   |   |   y-box <= 9: P (8.0/1.0)
|   |   |   |   |   |   |   y-box > 9
|   |   |   |   |   |   |   |   xegvy <= 11
|   |   |   |   |   |   |   |   |   y-bar <= 6: Y (2.0/1.0)
|   |   |   |   |   |   |   |   |   y-bar > 6: W (10.0)
|   |   |   |   |   |   |   |   xegvy > 11: V (6.0)
|   |   |   |   xy2bar > 7
|   |   |   |   |   x2bar <= 4
|   |   |   |   |   |   y-bar <= 5
|   |   |   |   |   |   |   y2bar <= 2
|   |   |   |   |   |   |   |   y-bar <= 4: A (17.0)
|   |   |   |   |   |   |   |   y-bar > 4
|   |   |   |   |   |   |   |   |   x2ybar <= 4: M (3.0)
|   |   |   |   |   |   |   |   |   x2ybar > 4: Y (2.0/1.0)
|   |   |   |   |   |   |   y2bar > 2
|   |   |   |   |   |   |   |   xy2bar <= 10
|   |   |   |   |   |   |   |   |   x2ybar <= 5
|   |   |   |   |   |   |   |   |   |   y-ege <= 5
|   |   |   |   |   |   |   |   |   |   |   x-ege <= 4
|   |   |   |   |   |   |   |   |   |   |   |   x-bar <= 8: O (3.0/1.0)
|   |   |   |   |   |   |   |   |   |   |   |   x-bar > 8: Z (3.0)
|   |   |   |   |   |   |   |   |   |   |   x-ege > 4
|   |   |   |   |   |   |   |   |   |   |   |   onpix <= 4: D (3.0/1.0)
|   |   |   |   |   |   |   |   |   |   |   |   onpix > 4: K (2.0)
|   |   |   |   |   |   |   |   |   |   y-ege > 5
|   |   |   |   |   |   |   |   |   |   |   y2bar <= 3: K (3.0/1.0)
|   |   |   |   |   |   |   |   |   |   |   y2bar > 3: Q (27.0/3.0)
|   |   |   |   |   |   |   |   |   x2ybar > 5
|   |   |   |   |   |   |   |   |   |   x-bar <= 8
|   |   |   |   |   |   |   |   |   |   |   x2bar <= 3: X (2.0)
|   |   |   |   |   |   |   |   |   |   |   x2bar > 3: G (3.0/1.0)
|   |   |   |   |   |   |   |   |   |   x-bar > 8: S (4.0/1.0)
|   |   |   |   |   |   |   |   xy2bar > 10: L (25.0/2.0)
|   |   |   |   |   |   y-bar > 5
|   |   |   |   |   |   |   x-ege <= 4
|   |   |   |   |   |   |   |   xybar <= 10
|   |   |   |   |   |   |   |   |   y-ege <= 6
|   |   |   |   |   |   |   |   |   |   xy2bar <= 9
|   |   |   |   |   |   |   |   |   |   |   yegvx <= 9
|   |   |   |   |   |   |   |   |   |   |   |   onpix <= 5
|   |   |   |   |   |   |   |   |   |   |   |   |   x2ybar <= 5
|   |   |   |   |   |   |   |   |   |   |   |   |   |   x2bar <= 2
|   |   |   |   |   |   |   |   |   |   |   |   |   |   |   xy2bar <= 8
|   |   |   |   |   |   |   |   |   |   |   |   |   |   |   |   x2ybar <= 3: K (2.0)
|   |   |   |   |   |   |   |   |   |   |   |   |   |   |   |   x2ybar > 3: X (6.0)
|   |   |   |   |   |   |   |   |   |   |   |   |   |   |   xy2bar > 8: K (5.0)
|   |   |   |   |   |   |   |   |   |   |   |   |   |   x2bar > 2
|   |   |   |   |   |   |   |   |   |   |   |   |   |   |   y-bar <= 6: H (2.0)
|   |   |   |   |   |   |   |   |   |   |   |   |   |   |   y-bar > 6: D (3.0/1.0)
|   |   |   |   |   |   |   |   |   |   |   |   |   x2ybar > 5
|   |   |   |   |   |   |   |   |   |   |   |   |   |   xybar <= 9: X (79.0/3.0)
|   |   |   |   |   |   |   |   |   |   |   |   |   |   xybar > 9
|   |   |   |   |   |   |   |   |   |   |   |   |   |   |   y-ege <= 4
|   |   |   |   |   |   |   |   |   |   |   |   |   |   |   |   x2bar <= 2
|   |   |   |   |   |   |   |   |   |   |   |   |   |   |   |   |   y2bar <= 7
|   |   |   |   |   |   |   |   |   |   |   |   |   |   |   |   |   |   yegvx <= 6: X (3.0)
|   |   |   |   |   |   |   |   |   |   |   |   |   |   |   |   |   |   yegvx > 6: K (4.0/1.0)
|   |   |   |   |   |   |   |   |   |   |   |   |   |   |   |   |   y2bar > 7: X (32.0)
|   |   |   |   |   |   |   |   |   |   |   |   |   |   |   |   x2bar > 2: H (14.0)
|   |   |   |   |   |   |   |   |   |   |   |   |   |   |   y-ege > 4
|   |   |   |   |   |   |   |   |   |   |   |   |   |   |   |   x2bar <= 2: E (2.0)
|   |   |   |   |   |   |   |   |   |   |   |   |   |   |   |   x2bar > 2: S (2.0)
|   |   |   |   |   |   |   |   |   |   |   |   onpix > 5
|   |   |   |   |   |   |   |   |   |   |   |   |   y2bar <= 7
|   |   |   |   |   |   |   |   |   |   |   |   |   |   x2ybar <= 4: K (3.0)
|   |   |   |   |   |   |   |   |   |   |   |   |   |   x2ybar > 4: H (12.0/2.0)
|   |   |   |   |   |   |   |   |   |   |   |   |   y2bar > 7: E (3.0/1.0)
|   |   |   |   |   |   |   |   |   |   |   yegvx > 9
|   |   |   |   |   |   |   |   |   |   |   |   x-bar <= 9
|   |   |   |   |   |   |   |   |   |   |   |   |   xegvy <= 6
|   |   |   |   |   |   |   |   |   |   |   |   |   |   x2bar <= 2: K (2.0)
|   |   |   |   |   |   |   |   |   |   |   |   |   |   x2bar > 2: R (10.0)
|   |   |   |   |   |   |   |   |   |   |   |   |   xegvy > 6: K (7.0/2.0)
|   |   |   |   |   |   |   |   |   |   |   |   x-bar > 9: S (2.0/1.0)
|   |   |   |   |   |   |   |   |   |   xy2bar > 9
|   |   |   |   |   |   |   |   |   |   |   y2bar <= 5: Q (5.0/1.0)
|   |   |   |   |   |   |   |   |   |   |   y2bar > 5
|   |   |   |   |   |   |   |   |   |   |   |   x-ege <= 2: E (3.0/1.0)
|   |   |   |   |   |   |   |   |   |   |   |   x-ege > 2
|   |   |   |   |   |   |   |   |   |   |   |   |   y2bar <= 7: K (58.0/1.0)
|   |   |   |   |   |   |   |   |   |   |   |   |   y2bar > 7
|   |   |   |   |   |   |   |   |   |   |   |   |   |   y-box <= 5: K (3.0)
|   |   |   |   |   |   |   |   |   |   |   |   |   |   y-box > 5: X (7.0/1.0)
|   |   |   |   |   |   |   |   |   y-ege > 6
|   |   |   |   |   |   |   |   |   |   x2ybar <= 7
|   |   |   |   |   |   |   |   |   |   |   y2bar <= 7
|   |   |   |   |   |   |   |   |   |   |   |   x2bar <= 3
|   |   |   |   |   |   |   |   |   |   |   |   |   x-ege <= 3: X (20.0)
|   |   |   |   |   |   |   |   |   |   |   |   |   x-ege > 3
|   |   |   |   |   |   |   |   |   |   |   |   |   |   x2ybar <= 6
|   |   |   |   |   |   |   |   |   |   |   |   |   |   |   x-bar <= 6
|   |   |   |   |   |   |   |   |   |   |   |   |   |   |   |   xegvy <= 8: K (3.0)
|   |   |   |   |   |   |   |   |   |   |   |   |   |   |   |   xegvy > 8: C (2.0)
|   |   |   |   |   |   |   |   |   |   |   |   |   |   |   x-bar > 6
|   |   |   |   |   |   |   |   |   |   |   |   |   |   |   |   x-box <= 6: X (4.0/1.0)
|   |   |   |   |   |   |   |   |   |   |   |   |   |   |   |   x-box > 6: G (2.0/1.0)
|   |   |   |   |   |   |   |   |   |   |   |   |   |   x2ybar > 6: E (12.0/1.0)
|   |   |   |   |   |   |   |   |   |   |   |   x2bar > 3
|   |   |   |   |   |   |   |   |   |   |   |   |   xy2bar <= 10
|   |   |   |   |   |   |   |   |   |   |   |   |   |   yegvx <= 8
|   |   |   |   |   |   |   |   |   |   |   |   |   |   |   y-ege <= 9
|   |   |   |   |   |   |   |   |   |   |   |   |   |   |   |   xegvy <= 9
|   |   |   |   |   |   |   |   |   |   |   |   |   |   |   |   |   x2ybar <= 6: J (5.0/1.0)
|   |   |   |   |   |   |   |   |   |   |   |   |   |   |   |   |   x2ybar > 6: I (4.0/1.0)
|   |   |   |   |   |   |   |   |   |   |   |   |   |   |   |   xegvy > 9: E (2.0)
|   |   |   |   |   |   |   |   |   |   |   |   |   |   |   y-ege > 9: S (2.0)
|   |   |   |   |   |   |   |   |   |   |   |   |   |   yegvx > 8
|   |   |   |   |   |   |   |   |   |   |   |   |   |   |   xegvy <= 8: L (6.0/1.0)
|   |   |   |   |   |   |   |   |   |   |   |   |   |   |   xegvy > 8
|   |   |   |   |   |   |   |   |   |   |   |   |   |   |   |   high <= 4: S (3.0)
|   |   |   |   |   |   |   |   |   |   |   |   |   |   |   |   high > 4: E (10.0/1.0)
|   |   |   |   |   |   |   |   |   |   |   |   |   xy2bar > 10: C (5.0)
|   |   |   |   |   |   |   |   |   |   |   y2bar > 7
|   |   |   |   |   |   |   |   |   |   |   |   xybar <= 6: X (8.0)
|   |   |   |   |   |   |   |   |   |   |   |   xybar > 6: T (8.0)
|   |   |   |   |   |   |   |   |   |   x2ybar > 7
|   |   |   |   |   |   |   |   |   |   |   xy2bar <= 9
|   |   |   |   |   |   |   |   |   |   |   |   y2bar <= 5: Y (6.0)
|   |   |   |   |   |   |   |   |   |   |   |   y2bar > 5: T (3.0)
|   |   |   |   |   |   |   |   |   |   |   xy2bar > 9: C (5.0/1.0)
|   |   |   |   |   |   |   |   xybar > 10
|   |   |   |   |   |   |   |   |   xy2bar <= 10
|   |   |   |   |   |   |   |   |   |   y-ege <= 5
|   |   |   |   |   |   |   |   |   |   |   xybar <= 12
|   |   |   |   |   |   |   |   |   |   |   |   x2bar <= 3
|   |   |   |   |   |   |   |   |   |   |   |   |   x-ege <= 3
|   |   |   |   |   |   |   |   |   |   |   |   |   |   x2ybar <= 8
|   |   |   |   |   |   |   |   |   |   |   |   |   |   |   y-ege <= 3: X (3.0/1.0)
|   |   |   |   |   |   |   |   |   |   |   |   |   |   |   y-ege > 3: E (50.0)
|   |   |   |   |   |   |   |   |   |   |   |   |   |   x2ybar > 8
|   |   |   |   |   |   |   |   |   |   |   |   |   |   |   x2bar <= 2: X (9.0/1.0)
|   |   |   |   |   |   |   |   |   |   |   |   |   |   |   x2bar > 2: E (3.0/1.0)
|   |   |   |   |   |   |   |   |   |   |   |   |   x-ege > 3: X (8.0)
|   |   |   |   |   |   |   |   |   |   |   |   x2bar > 3
|   |   |   |   |   |   |   |   |   |   |   |   |   high <= 5: S (4.0)
|   |   |   |   |   |   |   |   |   |   |   |   |   high > 5: E (4.0/1.0)
|   |   |   |   |   |   |   |   |   |   |   xybar > 12: S (5.0/1.0)
|   |   |   |   |   |   |   |   |   |   y-ege > 5
|   |   |   |   |   |   |   |   |   |   |   y2bar <= 7: E (3.0)
|   |   |   |   |   |   |   |   |   |   |   y2bar > 7: Z (17.0)
|   |   |   |   |   |   |   |   |   xy2bar > 10
|   |   |   |   |   |   |   |   |   |   y-ege <= 5: K (5.0)
|   |   |   |   |   |   |   |   |   |   y-ege > 5: L (3.0/1.0)
|   |   |   |   |   |   |   x-ege > 4
|   |   |   |   |   |   |   |   x-ege <= 7
|   |   |   |   |   |   |   |   |   xybar <= 8
|   |   |   |   |   |   |   |   |   |   y-ege <= 5
|   |   |   |   |   |   |   |   |   |   |   y2bar <= 4
|   |   |   |   |   |   |   |   |   |   |   |   x2bar <= 2: A (4.0)
|   |   |   |   |   |   |   |   |   |   |   |   x2bar > 2
|   |   |   |   |   |   |   |   |   |   |   |   |   y2bar <= 2: V (4.0)
|   |   |   |   |   |   |   |   |   |   |   |   |   y2bar > 2
|   |   |   |   |   |   |   |   |   |   |   |   |   |   x-bar <= 7
|   |   |   |   |   |   |   |   |   |   |   |   |   |   |   xy2bar <= 9
|   |   |   |   |   |   |   |   |   |   |   |   |   |   |   |   xybar <= 7
|   |   |   |   |   |   |   |   |   |   |   |   |   |   |   |   |   x-box <= 4: R (3.0)
|   |   |   |   |   |   |   |   |   |   |   |   |   |   |   |   |   x-box > 4: N (2.0/1.0)
|   |   |   |   |   |   |   |   |   |   |   |   |   |   |   |   xybar > 7: N (5.0)
|   |   |   |   |   |   |   |   |   |   |   |   |   |   |   xy2bar > 9: C (8.0)
|   |   |   |   |   |   |   |   |   |   |   |   |   |   x-bar > 7: U (2.0)
|   |   |   |   |   |   |   |   |   |   |   y2bar > 4
|   |   |   |   |   |   |   |   |   |   |   |   x-ege <= 5
|   |   |   |   |   |   |   |   |   |   |   |   |   y-ege <= 3: U (2.0)
|   |   |   |   |   |   |   |   |   |   |   |   |   y-ege > 3: T (6.0)
|   |   |   |   |   |   |   |   |   |   |   |   x-ege > 5
|   |   |   |   |   |   |   |   |   |   |   |   |   yegvx <= 8
|   |   |   |   |   |   |   |   |   |   |   |   |   |   width <= 6: D (2.0)
|   |   |   |   |   |   |   |   |   |   |   |   |   |   width > 6: A (2.0)
|   |   |   |   |   |   |   |   |   |   |   |   |   yegvx > 8: K (3.0)
|   |   |   |   |   |   |   |   |   |   y-ege > 5
|   |   |   |   |   |   |   |   |   |   |   yegvx <= 7
|   |   |   |   |   |   |   |   |   |   |   |   x2bar <= 3
|   |   |   |   |   |   |   |   |   |   |   |   |   x2ybar <= 6
|   |   |   |   |   |   |   |   |   |   |   |   |   |   xegvy <= 10
|   |   |   |   |   |   |   |   |   |   |   |   |   |   |   y-ege <= 7: R (17.0/1.0)
|   |   |   |   |   |   |   |   |   |   |   |   |   |   |   y-ege > 7
|   |   |   |   |   |   |   |   |   |   |   |   |   |   |   |   y-box <= 10: K (4.0/1.0)
|   |   |   |   |   |   |   |   |   |   |   |   |   |   |   |   y-box > 10: R (2.0)
|   |   |   |   |   |   |   |   |   |   |   |   |   |   xegvy > 10: L (2.0)
|   |   |   |   |   |   |   |   |   |   |   |   |   x2ybar > 6
|   |   |   |   |   |   |   |   |   |   |   |   |   |   xegvy <= 8: X (2.0)
|   |   |   |   |   |   |   |   |   |   |   |   |   |   xegvy > 8: L (10.0)
|   |   |   |   |   |   |   |   |   |   |   |   x2bar > 3
|   |   |   |   |   |   |   |   |   |   |   |   |   xy2bar <= 8
|   |   |   |   |   |   |   |   |   |   |   |   |   |   yegvx <= 6: R (4.0/1.0)
|   |   |   |   |   |   |   |   |   |   |   |   |   |   yegvx > 6: H (3.0/1.0)
|   |   |   |   |   |   |   |   |   |   |   |   |   xy2bar > 8: T (2.0)
|   |   |   |   |   |   |   |   |   |   |   yegvx > 7
|   |   |   |   |   |   |   |   |   |   |   |   xegvy <= 8
|   |   |   |   |   |   |   |   |   |   |   |   |   x2bar <= 3: K (6.0/1.0)
|   |   |   |   |   |   |   |   |   |   |   |   |   x2bar > 3: G (4.0/1.0)
|   |   |   |   |   |   |   |   |   |   |   |   xegvy > 8
|   |   |   |   |   |   |   |   |   |   |   |   |   x-ege <= 5
|   |   |   |   |   |   |   |   |   |   |   |   |   |   y-box <= 6: S (2.0)
|   |   |   |   |   |   |   |   |   |   |   |   |   |   y-box > 6: E (6.0/1.0)
|   |   |   |   |   |   |   |   |   |   |   |   |   x-ege > 5
|   |   |   |   |   |   |   |   |   |   |   |   |   |   x-bar <= 7: R (2.0/1.0)
|   |   |   |   |   |   |   |   |   |   |   |   |   |   x-bar > 7: Y (2.0)
|   |   |   |   |   |   |   |   |   xybar > 8
|   |   |   |   |   |   |   |   |   |   yegvx <= 5
|   |   |   |   |   |   |   |   |   |   |   x-box <= 5: N (2.0/1.0)
|   |   |   |   |   |   |   |   |   |   |   x-box > 5: X (2.0/1.0)
|   |   |   |   |   |   |   |   |   |   yegvx > 5
|   |   |   |   |   |   |   |   |   |   |   y-ege <= 6
|   |   |   |   |   |   |   |   |   |   |   |   xybar <= 10
|   |   |   |   |   |   |   |   |   |   |   |   |   y2bar <= 5
|   |   |   |   |   |   |   |   |   |   |   |   |   |   x-bar <= 5: F (2.0/1.0)
|   |   |   |   |   |   |   |   |   |   |   |   |   |   x-bar > 5
|   |   |   |   |   |   |   |   |   |   |   |   |   |   |   x2ybar <= 4: R (2.0)
|   |   |   |   |   |   |   |   |   |   |   |   |   |   |   x2ybar > 4: H (8.0)
|   |   |   |   |   |   |   |   |   |   |   |   |   y2bar > 5
|   |   |   |   |   |   |   |   |   |   |   |   |   |   onpix <= 7: K (28.0/3.0)
|   |   |   |   |   |   |   |   |   |   |   |   |   |   onpix > 7
|   |   |   |   |   |   |   |   |   |   |   |   |   |   |   x2bar <= 1: K (2.0)
|   |   |   |   |   |   |   |   |   |   |   |   |   |   |   x2bar > 1: H (4.0)
|   |   |   |   |   |   |   |   |   |   |   |   xybar > 10: E (2.0/1.0)
|   |   |   |   |   |   |   |   |   |   |   y-ege > 6
|   |   |   |   |   |   |   |   |   |   |   |   width <= 6: B (4.0)
|   |   |   |   |   |   |   |   |   |   |   |   width > 6: E (2.0/1.0)
|   |   |   |   |   |   |   |   x-ege > 7
|   |   |   |   |   |   |   |   |   y-ege <= 6
|   |   |   |   |   |   |   |   |   |   xegvy <= 8
|   |   |   |   |   |   |   |   |   |   |   y-bar <= 7: M (16.0)
|   |   |   |   |   |   |   |   |   |   |   y-bar > 7
|   |   |   |   |   |   |   |   |   |   |   |   x2bar <= 3: A (2.0)
|   |   |   |   |   |   |   |   |   |   |   |   x2bar > 3: M (6.0/1.0)
|   |   |   |   |   |   |   |   |   |   xegvy > 8
|   |   |   |   |   |   |   |   |   |   |   x2ybar <= 6: M (2.0)
|   |   |   |   |   |   |   |   |   |   |   x2ybar > 6
|   |   |   |   |   |   |   |   |   |   |   |   xegvy <= 9: U (5.0)
|   |   |   |   |   |   |   |   |   |   |   |   xegvy > 9: W (2.0/1.0)
|   |   |   |   |   |   |   |   |   y-ege > 6
|   |   |   |   |   |   |   |   |   |   xy2bar <= 8: U (3.0/1.0)
|   |   |   |   |   |   |   |   |   |   xy2bar > 8
|   |   |   |   |   |   |   |   |   |   |   xegvy <= 8
|   |   |   |   |   |   |   |   |   |   |   |   y-ege <= 8: K (4.0)
|   |   |   |   |   |   |   |   |   |   |   |   y-ege > 8: G (2.0/1.0)
|   |   |   |   |   |   |   |   |   |   |   xegvy > 8: R (4.0)
|   |   |   |   |   x2bar > 4
|   |   |   |   |   |   x-bar <= 7
|   |   |   |   |   |   |   y-ege <= 5
|   |   |   |   |   |   |   |   y2bar <= 4
|   |   |   |   |   |   |   |   |   x-bar <= 4: K (20.0)
|   |   |   |   |   |   |   |   |   x-bar > 4
|   |   |   |   |   |   |   |   |   |   y-bar <= 8
|   |   |   |   |   |   |   |   |   |   |   x-ege <= 5
|   |   |   |   |   |   |   |   |   |   |   |   x2bar <= 5
|   |   |   |   |   |   |   |   |   |   |   |   |   xy2bar <= 8: X (14.0/1.0)
|   |   |   |   |   |   |   |   |   |   |   |   |   xy2bar > 8
|   |   |   |   |   |   |   |   |   |   |   |   |   |   y2bar <= 3: Q (3.0)
|   |   |   |   |   |   |   |   |   |   |   |   |   |   y2bar > 3: G (7.0)
|   |   |   |   |   |   |   |   |   |   |   |   x2bar > 5: O (35.0/3.0)
|   |   |   |   |   |   |   |   |   |   |   x-ege > 5
|   |   |   |   |   |   |   |   |   |   |   |   xybar <= 6: N (3.0/1.0)
|   |   |   |   |   |   |   |   |   |   |   |   xybar > 6: W (6.0/1.0)
|   |   |   |   |   |   |   |   |   |   y-bar > 8
|   |   |   |   |   |   |   |   |   |   |   xegvy <= 7: R (9.0)
|   |   |   |   |   |   |   |   |   |   |   xegvy > 7: M (5.0/2.0)
|   |   |   |   |   |   |   |   y2bar > 4
|   |   |   |   |   |   |   |   |   xy2bar <= 8
|   |   |   |   |   |   |   |   |   |   xybar <= 6
|   |   |   |   |   |   |   |   |   |   |   x2ybar <= 6
|   |   |   |   |   |   |   |   |   |   |   |   yegvx <= 9
|   |   |   |   |   |   |   |   |   |   |   |   |   y-bar <= 7: G (4.0/1.0)
|   |   |   |   |   |   |   |   |   |   |   |   |   y-bar > 7: R (3.0)
|   |   |   |   |   |   |   |   |   |   |   |   yegvx > 9: L (6.0)
|   |   |   |   |   |   |   |   |   |   |   x2ybar > 6: U (3.0)
|   |   |   |   |   |   |   |   |   |   xybar > 6
|   |   |   |   |   |   |   |   |   |   |   yegvx <= 8
|   |   |   |   |   |   |   |   |   |   |   |   x-ege <= 3
|   |   |   |   |   |   |   |   |   |   |   |   |   x2bar <= 7
|   |   |   |   |   |   |   |   |   |   |   |   |   |   x-ege <= 2: O (10.0)
|   |   |   |   |   |   |   |   |   |   |   |   |   |   x-ege > 2
|   |   |   |   |   |   |   |   |   |   |   |   |   |   |   xybar <= 7: H (8.0)
|   |   |   |   |   |   |   |   |   |   |   |   |   |   |   xybar > 7: O (5.0)
|   |   |   |   |   |   |   |   |   |   |   |   |   x2bar > 7: O (28.0)
|   |   |   |   |   |   |   |   |   |   |   |   x-ege > 3
|   |   |   |   |   |   |   |   |   |   |   |   |   y-ege <= 3: D (4.0/1.0)
|   |   |   |   |   |   |   |   |   |   |   |   |   y-ege > 3: H (3.0/1.0)
|   |   |   |   |   |   |   |   |   |   |   yegvx > 8
|   |   |   |   |   |   |   |   |   |   |   |   xybar <= 7: E (6.0/1.0)
|   |   |   |   |   |   |   |   |   |   |   |   xybar > 7: T (3.0/2.0)
|   |   |   |   |   |   |   |   |   xy2bar > 8
|   |   |   |   |   |   |   |   |   |   y-bar <= 7
|   |   |   |   |   |   |   |   |   |   |   y-ege <= 3
|   |   |   |   |   |   |   |   |   |   |   |   xegvy <= 9
|   |   |   |   |   |   |   |   |   |   |   |   |   x2bar <= 7: H (10.0/2.0)
|   |   |   |   |   |   |   |   |   |   |   |   |   x2bar > 7: O (2.0)
|   |   |   |   |   |   |   |   |   |   |   |   xegvy > 9: C (4.0/1.0)
|   |   |   |   |   |   |   |   |   |   |   y-ege > 3
|   |   |   |   |   |   |   |   |   |   |   |   yegvx <= 7
|   |   |   |   |   |   |   |   |   |   |   |   |   y-bar <= 6: G (5.0/1.0)
|   |   |   |   |   |   |   |   |   |   |   |   |   y-bar > 6: C (12.0/3.0)
|   |   |   |   |   |   |   |   |   |   |   |   yegvx > 7
|   |   |   |   |   |   |   |   |   |   |   |   |   y-ege <= 4
|   |   |   |   |   |   |   |   |   |   |   |   |   |   x2bar <= 7: G (83.0/7.0)
|   |   |   |   |   |   |   |   |   |   |   |   |   |   x2bar > 7: C (8.0/1.0)
|   |   |   |   |   |   |   |   |   |   |   |   |   y-ege > 4
|   |   |   |   |   |   |   |   |   |   |   |   |   |   x2bar <= 5
|   |   |   |   |   |   |   |   |   |   |   |   |   |   |   width <= 4: E (7.0)
|   |   |   |   |   |   |   |   |   |   |   |   |   |   |   width > 4: K (3.0/1.0)
|   |   |   |   |   |   |   |   |   |   |   |   |   |   x2bar > 5: G (26.0/2.0)
|   |   |   |   |   |   |   |   |   |   y-bar > 7
|   |   |   |   |   |   |   |   |   |   |   high <= 2
|   |   |   |   |   |   |   |   |   |   |   |   high <= 1: H (2.0)
|   |   |   |   |   |   |   |   |   |   |   |   high > 1: G (2.0/1.0)
|   |   |   |   |   |   |   |   |   |   |   high > 2
|   |   |   |   |   |   |   |   |   |   |   |   yegvx <= 6
|   |   |   |   |   |   |   |   |   |   |   |   |   xybar <= 10: U (11.0/1.0)
|   |   |   |   |   |   |   |   |   |   |   |   |   xybar > 10: E (2.0/1.0)
|   |   |   |   |   |   |   |   |   |   |   |   yegvx > 6
|   |   |   |   |   |   |   |   |   |   |   |   |   y2bar <= 5: O (2.0)
|   |   |   |   |   |   |   |   |   |   |   |   |   y2bar > 5: C (36.0/2.0)
|   |   |   |   |   |   |   y-ege > 5
|   |   |   |   |   |   |   |   y2bar <= 6
|   |   |   |   |   |   |   |   |   yegvx <= 8
|   |   |   |   |   |   |   |   |   |   yegvx <= 4
|   |   |   |   |   |   |   |   |   |   |   y2bar <= 4: A (8.0/1.0)
|   |   |   |   |   |   |   |   |   |   |   y2bar > 4
|   |   |   |   |   |   |   |   |   |   |   |   y-box <= 8: D (3.0)
|   |   |   |   |   |   |   |   |   |   |   |   y-box > 8: U (2.0)
|   |   |   |   |   |   |   |   |   |   yegvx > 4
|   |   |   |   |   |   |   |   |   |   |   x2ybar <= 7
|   |   |   |   |   |   |   |   |   |   |   |   x2ybar <= 5
|   |   |   |   |   |   |   |   |   |   |   |   |   x-box <= 6
|   |   |   |   |   |   |   |   |   |   |   |   |   |   xegvy <= 5: Q (3.0)
|   |   |   |   |   |   |   |   |   |   |   |   |   |   xegvy > 5: M (6.0/2.0)
|   |   |   |   |   |   |   |   |   |   |   |   |   x-box > 6: W (2.0)
|   |   |   |   |   |   |   |   |   |   |   |   x2ybar > 5
|   |   |   |   |   |   |   |   |   |   |   |   |   x-ege <= 5: G (14.0/2.0)
|   |   |   |   |   |   |   |   |   |   |   |   |   x-ege > 5
|   |   |   |   |   |   |   |   |   |   |   |   |   |   x2ybar <= 6
|   |   |   |   |   |   |   |   |   |   |   |   |   |   |   y-ege <= 7: V (5.0)
|   |   |   |   |   |   |   |   |   |   |   |   |   |   |   y-ege > 7
|   |   |   |   |   |   |   |   |   |   |   |   |   |   |   |   x-ege <= 8: B (7.0)
|   |   |   |   |   |   |   |   |   |   |   |   |   |   |   |   x-ege > 8: W (3.0/1.0)
|   |   |   |   |   |   |   |   |   |   |   |   |   |   x2ybar > 6: G (8.0/1.0)
|   |   |   |   |   |   |   |   |   |   |   x2ybar > 7
|   |   |   |   |   |   |   |   |   |   |   |   x2ybar <= 8
|   |   |   |   |   |   |   |   |   |   |   |   |   y-box <= 9: T (2.0)
|   |   |   |   |   |   |   |   |   |   |   |   |   y-box > 9: S (2.0/1.0)
|   |   |   |   |   |   |   |   |   |   |   |   x2ybar > 8: Q (6.0)
|   |   |   |   |   |   |   |   |   yegvx > 8
|   |   |   |   |   |   |   |   |   |   xegvy <= 8
|   |   |   |   |   |   |   |   |   |   |   y-ege <= 7
|   |   |   |   |   |   |   |   |   |   |   |   x-ege <= 2: G (4.0/1.0)
|   |   |   |   |   |   |   |   |   |   |   |   x-ege > 2
|   |   |   |   |   |   |   |   |   |   |   |   |   x2ybar <= 6
|   |   |   |   |   |   |   |   |   |   |   |   |   |   y-bar <= 7
|   |   |   |   |   |   |   |   |   |   |   |   |   |   |   x-bar <= 6: H (7.0/1.0)
|   |   |   |   |   |   |   |   |   |   |   |   |   |   |   x-bar > 6: R (3.0)
|   |   |   |   |   |   |   |   |   |   |   |   |   |   y-bar > 7
|   |   |   |   |   |   |   |   |   |   |   |   |   |   |   high <= 5: M (2.0/1.0)
|   |   |   |   |   |   |   |   |   |   |   |   |   |   |   high > 5: R (12.0/1.0)
|   |   |   |   |   |   |   |   |   |   |   |   |   x2ybar > 6: Q (2.0/1.0)
|   |   |   |   |   |   |   |   |   |   |   y-ege > 7
|   |   |   |   |   |   |   |   |   |   |   |   y-box <= 9: Q (2.0/1.0)
|   |   |   |   |   |   |   |   |   |   |   |   y-box > 9: K (2.0)
|   |   |   |   |   |   |   |   |   |   xegvy > 8
|   |   |   |   |   |   |   |   |   |   |   xybar <= 6
|   |   |   |   |   |   |   |   |   |   |   |   width <= 6: V (2.0/1.0)
|   |   |   |   |   |   |   |   |   |   |   |   width > 6: W (3.0)
|   |   |   |   |   |   |   |   |   |   |   xybar > 6
|   |   |   |   |   |   |   |   |   |   |   |   y2bar <= 3: G (4.0/2.0)
|   |   |   |   |   |   |   |   |   |   |   |   y2bar > 3
|   |   |   |   |   |   |   |   |   |   |   |   |   xy2bar <= 8
|   |   |   |   |   |   |   |   |   |   |   |   |   |   x-ege <= 5: F (11.0/2.0)
|   |   |   |   |   |   |   |   |   |   |   |   |   |   x-ege > 5
|   |   |   |   |   |   |   |   |   |   |   |   |   |   |   y-box <= 9: V (3.0)
|   |   |   |   |   |   |   |   |   |   |   |   |   |   |   y-box > 9: F (2.0/1.0)
|   |   |   |   |   |   |   |   |   |   |   |   |   xy2bar > 8
|   |   |   |   |   |   |   |   |   |   |   |   |   |   y-box <= 7: E (4.0)
|   |   |   |   |   |   |   |   |   |   |   |   |   |   y-box > 7: P (4.0/1.0)
|   |   |   |   |   |   |   |   y2bar > 6
|   |   |   |   |   |   |   |   |   yegvx <= 10
|   |   |   |   |   |   |   |   |   |   yegvx <= 7
|   |   |   |   |   |   |   |   |   |   |   width <= 9
|   |   |   |   |   |   |   |   |   |   |   |   xegvy <= 6: D (3.0)
|   |   |   |   |   |   |   |   |   |   |   |   xegvy > 6: T (3.0)
|   |   |   |   |   |   |   |   |   |   |   width > 9: U (2.0)
|   |   |   |   |   |   |   |   |   |   yegvx > 7
|   |   |   |   |   |   |   |   |   |   |   xegvy <= 7: R (3.0/1.0)
|   |   |   |   |   |   |   |   |   |   |   xegvy > 7
|   |   |   |   |   |   |   |   |   |   |   |   y-ege <= 6: E (33.0/1.0)
|   |   |   |   |   |   |   |   |   |   |   |   y-ege > 6: Z (9.0)
|   |   |   |   |   |   |   |   |   yegvx > 10: G (9.0)
|   |   |   |   |   |   x-bar > 7
|   |   |   |   |   |   |   x-ege <= 4
|   |   |   |   |   |   |   |   y-ege <= 7
|   |   |   |   |   |   |   |   |   y-ege <= 4
|   |   |   |   |   |   |   |   |   |   yegvx <= 7
|   |   |   |   |   |   |   |   |   |   |   x2bar <= 6: H (3.0/1.0)
|   |   |   |   |   |   |   |   |   |   |   x2bar > 6
|   |   |   |   |   |   |   |   |   |   |   |   x2ybar <= 5
|   |   |   |   |   |   |   |   |   |   |   |   |   xybar <= 8: Q (3.0/1.0)
|   |   |   |   |   |   |   |   |   |   |   |   |   xybar > 8: O (5.0)
|   |   |   |   |   |   |   |   |   |   |   |   x2ybar > 5
|   |   |   |   |   |   |   |   |   |   |   |   |   high <= 7: U (6.0)
|   |   |   |   |   |   |   |   |   |   |   |   |   high > 7: O (2.0/1.0)
|   |   |   |   |   |   |   |   |   |   yegvx > 7
|   |   |   |   |   |   |   |   |   |   |   yegvx <= 8
|   |   |   |   |   |   |   |   |   |   |   |   xybar <= 6
|   |   |   |   |   |   |   |   |   |   |   |   |   y-bar <= 7: Q (26.0)
|   |   |   |   |   |   |   |   |   |   |   |   |   y-bar > 7: O (5.0)
|   |   |   |   |   |   |   |   |   |   |   |   xybar > 6
|   |   |   |   |   |   |   |   |   |   |   |   |   xegvy <= 8
|   |   |   |   |   |   |   |   |   |   |   |   |   |   y-bar <= 5: Q (4.0)
|   |   |   |   |   |   |   |   |   |   |   |   |   |   y-bar > 5: O (35.0/1.0)
|   |   |   |   |   |   |   |   |   |   |   |   |   xegvy > 8: Q (3.0)
|   |   |   |   |   |   |   |   |   |   |   yegvx > 8: Q (16.0/1.0)
|   |   |   |   |   |   |   |   |   y-ege > 4
|   |   |   |   |   |   |   |   |   |   yegvx <= 10
|   |   |   |   |   |   |   |   |   |   |   y2bar <= 6
|   |   |   |   |   |   |   |   |   |   |   |   x2ybar <= 4
|   |   |   |   |   |   |   |   |   |   |   |   |   x-box <= 5: O (3.0/1.0)
|   |   |   |   |   |   |   |   |   |   |   |   |   x-box > 5: Q (2.0/1.0)
|   |   |   |   |   |   |   |   |   |   |   |   x2ybar > 4: Q (104.0/10.0)
|   |   |   |   |   |   |   |   |   |   |   y2bar > 6
|   |   |   |   |   |   |   |   |   |   |   |   x-ege <= 2
|   |   |   |   |   |   |   |   |   |   |   |   |   xybar <= 6: G (2.0)
|   |   |   |   |   |   |   |   |   |   |   |   |   xybar > 6: E (2.0/1.0)
|   |   |   |   |   |   |   |   |   |   |   |   x-ege > 2
|   |   |   |   |   |   |   |   |   |   |   |   |   x-box <= 5: J (2.0/1.0)
|   |   |   |   |   |   |   |   |   |   |   |   |   x-box > 5: Q (2.0)
|   |   |   |   |   |   |   |   |   |   yegvx > 10
|   |   |   |   |   |   |   |   |   |   |   xybar <= 7: G (8.0)
|   |   |   |   |   |   |   |   |   |   |   xybar > 7: R (6.0/1.0)
|   |   |   |   |   |   |   |   y-ege > 7
|   |   |   |   |   |   |   |   |   yegvx <= 7
|   |   |   |   |   |   |   |   |   |   x2bar <= 5: J (4.0/1.0)
|   |   |   |   |   |   |   |   |   |   x2bar > 5
|   |   |   |   |   |   |   |   |   |   |   x-ege <= 3
|   |   |   |   |   |   |   |   |   |   |   |   yegvx <= 6: Y (4.0/1.0)
|   |   |   |   |   |   |   |   |   |   |   |   yegvx > 6: S (2.0)
|   |   |   |   |   |   |   |   |   |   |   x-ege > 3: Q (2.0/1.0)
|   |   |   |   |   |   |   |   |   yegvx > 7
|   |   |   |   |   |   |   |   |   |   yegvx <= 9
|   |   |   |   |   |   |   |   |   |   |   xybar <= 8: S (16.0/1.0)
|   |   |   |   |   |   |   |   |   |   |   xybar > 8: G (2.0/1.0)
|   |   |   |   |   |   |   |   |   |   yegvx > 9: E (3.0)
|   |   |   |   |   |   |   x-ege > 4
|   |   |   |   |   |   |   |   x2ybar <= 4
|   |   |   |   |   |   |   |   |   xybar <= 11
|   |   |   |   |   |   |   |   |   |   xy2bar <= 8: O (2.0/1.0)
|   |   |   |   |   |   |   |   |   |   xy2bar > 8
|   |   |   |   |   |   |   |   |   |   |   xybar <= 10: R (4.0/1.0)
|   |   |   |   |   |   |   |   |   |   |   xybar > 10: B (6.0)
|   |   |   |   |   |   |   |   |   xybar > 11: D (6.0)
|   |   |   |   |   |   |   |   x2ybar > 4
|   |   |   |   |   |   |   |   |   xy2bar <= 9
|   |   |   |   |   |   |   |   |   |   xegvy <= 7
|   |   |   |   |   |   |   |   |   |   |   xybar <= 7
|   |   |   |   |   |   |   |   |   |   |   |   y-bar <= 6: M (4.0)
|   |   |   |   |   |   |   |   |   |   |   |   y-bar > 6
|   |   |   |   |   |   |   |   |   |   |   |   |   onpix <= 7: A (2.0)
|   |   |   |   |   |   |   |   |   |   |   |   |   onpix > 7: W (2.0)
|   |   |   |   |   |   |   |   |   |   |   xybar > 7: R (3.0/2.0)
|   |   |   |   |   |   |   |   |   |   xegvy > 7
|   |   |   |   |   |   |   |   |   |   |   yegvx <= 8
|   |   |   |   |   |   |   |   |   |   |   |   y2bar <= 5
|   |   |   |   |   |   |   |   |   |   |   |   |   y-box <= 6
|   |   |   |   |   |   |   |   |   |   |   |   |   |   x2ybar <= 6
|   |   |   |   |   |   |   |   |   |   |   |   |   |   |   width <= 5: V (2.0)
|   |   |   |   |   |   |   |   |   |   |   |   |   |   |   width > 5: Q (2.0/1.0)
|   |   |   |   |   |   |   |   |   |   |   |   |   |   x2ybar > 6: Y (9.0)
|   |   |   |   |   |   |   |   |   |   |   |   |   y-box > 6
|   |   |   |   |   |   |   |   |   |   |   |   |   |   x2bar <= 6
|   |   |   |   |   |   |   |   |   |   |   |   |   |   |   xy2bar <= 8
|   |   |   |   |   |   |   |   |   |   |   |   |   |   |   |   xybar <= 7: W (13.0/3.0)
|   |   |   |   |   |   |   |   |   |   |   |   |   |   |   |   xybar > 7: V (2.0)
|   |   |   |   |   |   |   |   |   |   |   |   |   |   |   xy2bar > 8: O (2.0/1.0)
|   |   |   |   |   |   |   |   |   |   |   |   |   |   x2bar > 6: U (3.0/1.0)
|   |   |   |   |   |   |   |   |   |   |   |   y2bar > 5
|   |   |   |   |   |   |   |   |   |   |   |   |   x2ybar <= 6: H (7.0/1.0)
|   |   |   |   |   |   |   |   |   |   |   |   |   x2ybar > 6: U (3.0)
|   |   |   |   |   |   |   |   |   |   |   yegvx > 8
|   |   |   |   |   |   |   |   |   |   |   |   xybar <= 6
|   |   |   |   |   |   |   |   |   |   |   |   |   high <= 7: G (4.0)
|   |   |   |   |   |   |   |   |   |   |   |   |   high > 7: Q (3.0)
|   |   |   |   |   |   |   |   |   |   |   |   xybar > 6
|   |   |   |   |   |   |   |   |   |   |   |   |   y2bar <= 2: O (6.0/1.0)
|   |   |   |   |   |   |   |   |   |   |   |   |   y2bar > 2
|   |   |   |   |   |   |   |   |   |   |   |   |   |   y-bar <= 6: G (3.0/2.0)
|   |   |   |   |   |   |   |   |   |   |   |   |   |   y-bar > 6: S (2.0)
|   |   |   |   |   |   |   |   |   xy2bar > 9
|   |   |   |   |   |   |   |   |   |   y-ege <= 6
|   |   |   |   |   |   |   |   |   |   |   xy2bar <= 10: G (7.0/1.0)
|   |   |   |   |   |   |   |   |   |   |   xy2bar > 10: C (3.0)
|   |   |   |   |   |   |   |   |   |   y-ege > 6
|   |   |   |   |   |   |   |   |   |   |   x2ybar <= 6
|   |   |   |   |   |   |   |   |   |   |   |   xegvy <= 7: Q (2.0/1.0)
|   |   |   |   |   |   |   |   |   |   |   |   xegvy > 7: E (4.0)
|   |   |   |   |   |   |   |   |   |   |   x2ybar > 6: Q (2.0)
y-bar > 9
|   x-ege <= 4
|   |   x2bar <= 5
|   |   |   x2ybar <= 9
|   |   |   |   yegvx <= 5
|   |   |   |   |   y-ege <= 5
|   |   |   |   |   |   width <= 2: Y (2.0)
|   |   |   |   |   |   width > 2
|   |   |   |   |   |   |   x-bar <= 3: F (2.0)
|   |   |   |   |   |   |   x-bar > 3
|   |   |   |   |   |   |   |   y-ege <= 4: T (84.0/2.0)
|   |   |   |   |   |   |   |   y-ege > 4
|   |   |   |   |   |   |   |   |   y2bar <= 5: P (3.0/1.0)
|   |   |   |   |   |   |   |   |   y2bar > 5: T (4.0)
|   |   |   |   |   y-ege > 5
|   |   |   |   |   |   onpix <= 5: Z (5.0/1.0)
|   |   |   |   |   |   onpix > 5
|   |   |   |   |   |   |   y2bar <= 2: H (3.0)
|   |   |   |   |   |   |   y2bar > 2: S (2.0/1.0)
|   |   |   |   yegvx > 5
|   |   |   |   |   xybar <= 9
|   |   |   |   |   |   xybar <= 7
|   |   |   |   |   |   |   xy2bar <= 9: I (2.0/1.0)
|   |   |   |   |   |   |   xy2bar > 9: Q (4.0)
|   |   |   |   |   |   xybar > 7
|   |   |   |   |   |   |   y2bar <= 4
|   |   |   |   |   |   |   |   x-box <= 4: P (8.0/1.0)
|   |   |   |   |   |   |   |   x-box > 4: V (2.0)
|   |   |   |   |   |   |   y2bar > 4: E (2.0/1.0)
|   |   |   |   |   xybar > 9
|   |   |   |   |   |   yegvx <= 8
|   |   |   |   |   |   |   xy2bar <= 4
|   |   |   |   |   |   |   |   y-ege <= 2
|   |   |   |   |   |   |   |   |   xybar <= 11: P (2.0)
|   |   |   |   |   |   |   |   |   xybar > 11: F (24.0/1.0)
|   |   |   |   |   |   |   |   y-ege > 2
|   |   |   |   |   |   |   |   |   y-bar <= 13
|   |   |   |   |   |   |   |   |   |   y-ege <= 6
|   |   |   |   |   |   |   |   |   |   |   width <= 2
|   |   |   |   |   |   |   |   |   |   |   |   y-box <= 2: P (2.0)
|   |   |   |   |   |   |   |   |   |   |   |   y-box > 2: F (2.0)
|   |   |   |   |   |   |   |   |   |   |   width > 2: P (38.0/2.0)
|   |   |   |   |   |   |   |   |   |   y-ege > 6: F (3.0)
|   |   |   |   |   |   |   |   |   y-bar > 13: F (4.0)
|   |   |   |   |   |   |   xy2bar > 4
|   |   |   |   |   |   |   |   x-box <= 5: F (65.0/1.0)
|   |   |   |   |   |   |   |   x-box > 5: V (2.0/1.0)
|   |   |   |   |   |   yegvx > 8
|   |   |   |   |   |   |   x-ege <= 1: P (6.0)
|   |   |   |   |   |   |   x-ege > 1: J (5.0/1.0)
|   |   |   x2ybar > 9
|   |   |   |   xegvy <= 8
|   |   |   |   |   y-ege <= 1: T (64.0/1.0)
|   |   |   |   |   y-ege > 1: F (44.0)
|   |   |   |   xegvy > 8
|   |   |   |   |   x-ege <= 1
|   |   |   |   |   |   y2bar <= 5: Y (73.0/1.0)
|   |   |   |   |   |   y2bar > 5
|   |   |   |   |   |   |   y-ege <= 1
|   |   |   |   |   |   |   |   y-bar <= 10: Y (6.0/1.0)
|   |   |   |   |   |   |   |   y-bar > 10
|   |   |   |   |   |   |   |   |   y2bar <= 6
|   |   |   |   |   |   |   |   |   |   xy2bar <= 7: Y (3.0)
|   |   |   |   |   |   |   |   |   |   xy2bar > 7: T (5.0/1.0)
|   |   |   |   |   |   |   |   |   y2bar > 6: T (16.0/1.0)
|   |   |   |   |   |   |   y-ege > 1
|   |   |   |   |   |   |   |   xegvy <= 10
|   |   |   |   |   |   |   |   |   y2bar <= 6: F (4.0/1.0)
|   |   |   |   |   |   |   |   |   y2bar > 6: Y (9.0)
|   |   |   |   |   |   |   |   xegvy > 10
|   |   |   |   |   |   |   |   |   y2bar <= 7: Y (35.0/1.0)
|   |   |   |   |   |   |   |   |   y2bar > 7
|   |   |   |   |   |   |   |   |   |   x2ybar <= 10: T (4.0)
|   |   |   |   |   |   |   |   |   |   x2ybar > 10: Y (4.0)
|   |   |   |   |   x-ege > 1
|   |   |   |   |   |   y2bar <= 5
|   |   |   |   |   |   |   x2ybar <= 12
|   |   |   |   |   |   |   |   y-ege <= 5
|   |   |   |   |   |   |   |   |   yegvx <= 6
|   |   |   |   |   |   |   |   |   |   x-box <= 5: F (2.0)
|   |   |   |   |   |   |   |   |   |   x-box > 5: V (2.0/1.0)
|   |   |   |   |   |   |   |   |   yegvx > 6
|   |   |   |   |   |   |   |   |   |   y2bar <= 4: V (125.0/1.0)
|   |   |   |   |   |   |   |   |   |   y2bar > 4
|   |   |   |   |   |   |   |   |   |   |   width <= 5: T (2.0)
|   |   |   |   |   |   |   |   |   |   |   width > 5: V (6.0)
|   |   |   |   |   |   |   |   y-ege > 5
|   |   |   |   |   |   |   |   |   x-box <= 6: Q (2.0)
|   |   |   |   |   |   |   |   |   x-box > 6: Y (2.0)
|   |   |   |   |   |   |   x2ybar > 12: Y (7.0)
|   |   |   |   |   |   y2bar > 5
|   |   |   |   |   |   |   xegvy <= 10: F (5.0/1.0)
|   |   |   |   |   |   |   xegvy > 10
|   |   |   |   |   |   |   |   y-bar <= 10: Y (15.0)
|   |   |   |   |   |   |   |   y-bar > 10
|   |   |   |   |   |   |   |   |   y-ege <= 1: T (27.0)
|   |   |   |   |   |   |   |   |   y-ege > 1
|   |   |   |   |   |   |   |   |   |   x2ybar <= 10: T (4.0)
|   |   |   |   |   |   |   |   |   |   x2ybar > 10: Y (2.0)
|   |   x2bar > 5
|   |   |   xy2bar <= 6
|   |   |   |   yegvx <= 6: F (2.0/1.0)
|   |   |   |   yegvx > 6: P (77.0)
|   |   |   xy2bar > 6
|   |   |   |   yegvx <= 8
|   |   |   |   |   x-ege <= 2: C (4.0/1.0)
|   |   |   |   |   x-ege > 2
|   |   |   |   |   |   y-box <= 6: H (2.0)
|   |   |   |   |   |   y-box > 6: Z (3.0/1.0)
|   |   |   |   yegvx > 8
|   |   |   |   |   x-bar <= 7
|   |   |   |   |   |   y2bar <= 4: R (36.0)
|   |   |   |   |   |   y2bar > 4: F (2.0)
|   |   |   |   |   x-bar > 7: Q (4.0)
|   x-ege > 4
|   |   y2bar <= 3
|   |   |   xy2bar <= 9
|   |   |   |   yegvx <= 8
|   |   |   |   |   x2bar <= 4
|   |   |   |   |   |   y2bar <= 0: P (2.0)
|   |   |   |   |   |   y2bar > 0
|   |   |   |   |   |   |   x2bar <= 1: V (4.0/1.0)
|   |   |   |   |   |   |   x2bar > 1
|   |   |   |   |   |   |   |   y-bar <= 11: W (108.0/1.0)
|   |   |   |   |   |   |   |   y-bar > 11
|   |   |   |   |   |   |   |   |   yegvx <= 6: V (2.0)
|   |   |   |   |   |   |   |   |   yegvx > 6: W (5.0)
|   |   |   |   |   x2bar > 4
|   |   |   |   |   |   x2ybar <= 5: P (2.0)
|   |   |   |   |   |   x2ybar > 5
|   |   |   |   |   |   |   xybar <= 8
|   |   |   |   |   |   |   |   high <= 7: G (3.0/1.0)
|   |   |   |   |   |   |   |   high > 7: M (3.0/1.0)
|   |   |   |   |   |   |   xybar > 8: W (2.0)
|   |   |   |   yegvx > 8
|   |   |   |   |   x-box <= 5: O (2.0)
|   |   |   |   |   x-box > 5: V (2.0)
|   |   |   xy2bar > 9: Q (5.0)
|   |   y2bar > 3
|   |   |   xy2bar <= 6
|   |   |   |   x2ybar <= 9: F (4.0/1.0)
|   |   |   |   x2ybar > 9: V (4.0)
|   |   |   xy2bar > 6
|   |   |   |   y-ege <= 5
|   |   |   |   |   xybar <= 10
|   |   |   |   |   |   x-ege <= 8: N (19.0/1.0)
|   |   |   |   |   |   x-ege > 8: M (7.0)
|   |   |   |   |   xybar > 10: W (3.0)
|   |   |   |   y-ege > 5
|   |   |   |   |   x-ege <= 5: Y (4.0/1.0)
|   |   |   |   |   x-ege > 5: M (3.0/1.0)

Number of Leaves  : 	571

Size of the tree : 	1141


Time taken to build model: 0.25 seconds

=== Stratified cross-validation ===
=== Summary ===

Correctly Classified Instances        4833               80.55   %
Incorrectly Classified Instances      1167               19.45   %
Kappa statistic                          0.7977
Mean absolute error                      0.0165
Root mean squared error                  0.1139
Relative absolute error                 22.2526 %
Root relative squared error             59.2379 %
Total Number of Instances             6000     

=== Detailed Accuracy By Class ===

                 TP Rate  FP Rate  Precision  Recall   F-Measure  MCC      ROC Area  PRC Area  Class
                 0.759    0.013    0.718      0.759    0.738      0.727    0.897     0.648     Q
                 0.749    0.010    0.732      0.749    0.740      0.731    0.903     0.676     O
                 0.747    0.013    0.711      0.747    0.729      0.717    0.885     0.628     G
                 0.823    0.009    0.792      0.823    0.807      0.799    0.916     0.660     E
                 0.878    0.006    0.845      0.878    0.861      0.855    0.942     0.797     N
                 0.732    0.014    0.688      0.732    0.709      0.697    0.905     0.661     R
                 0.884    0.006    0.856      0.884    0.870      0.865    0.948     0.814     J
                 0.800    0.009    0.790      0.800    0.795      0.786    0.912     0.715     P
                 0.875    0.005    0.875      0.875    0.875      0.870    0.944     0.750     V
                 0.795    0.007    0.823      0.795    0.809      0.801    0.924     0.758     X
                 0.878    0.007    0.841      0.878    0.859      0.853    0.947     0.815     W
                 0.759    0.013    0.718      0.759    0.738      0.727    0.893     0.637     D
                 0.862    0.004    0.897      0.862    0.879      0.875    0.931     0.787     I
                 0.721    0.010    0.755      0.721    0.738      0.727    0.882     0.630     F
                 0.882    0.004    0.908      0.882    0.894      0.890    0.959     0.878     L
                 0.839    0.006    0.856      0.839    0.847      0.841    0.935     0.743     T
                 0.683    0.009    0.724      0.683    0.703      0.693    0.859     0.600     S
                 0.809    0.007    0.833      0.809    0.821      0.813    0.926     0.757     Y
                 0.819    0.006    0.861      0.819    0.840      0.833    0.940     0.779     U
                 0.773    0.009    0.763      0.773    0.768      0.759    0.914     0.699     K
                 0.834    0.004    0.892      0.834    0.862      0.857    0.939     0.824     M
                 0.777    0.011    0.743      0.777    0.760      0.750    0.918     0.651     B
                 0.901    0.003    0.923      0.901    0.912      0.909    0.960     0.821     A
                 0.853    0.006    0.846      0.853    0.850      0.844    0.930     0.791     C
                 0.678    0.010    0.699      0.678    0.689      0.678    0.868     0.580     H
                 0.820    0.004    0.889      0.820    0.854      0.849    0.934     0.817     Z
Weighted Avg.    0.806    0.008    0.807      0.806    0.806      0.798    0.920     0.728     

=== Confusion Matrix ===

   a   b   c   d   e   f   g   h   i   j   k   l   m   n   o   p   q   r   s   t   u   v   w   x   y   z   <-- classified as
 183  12   9   0   1   3   0   1   2   0   3   2   2   0   1   1   1   3   2   1   2   2   1   6   2   1 |   a = Q
  14 161   4   1   0   3   1   1   0   1   1  10   0   3   0   0   0   0   2   0   0   4   1   5   2   1 |   b = O
   7   5 180   7   0   3   0   1   2   1   1   1   0   2   3   0   5   1   0   5   3   1   1  10   2   0 |   c = G
   6   0   4 190   0   2   0   1   0   4   1   0   1   0   3   0   7   1   1   4   0   1   0   2   0   3 |   d = E
   0   2   0   0 201   3   1   0   2   0   2   4   2   1   0   0   0   1   1   0   5   1   1   0   2   0 |   e = N
   2   1   9   2   4 172   1   0   1   0   0   4   0   1   3   0   1   1   1  12   1   9   0   2   8   0 |   f = R
   1   1   1   1   1   2 190   1   0   1   0   1   6   0   0   0   3   0   1   0   0   4   0   0   0   1 |   g = J
   2   0   4   2   1   1   2 196   4   1   1   3   1  16   0   1   0   6   1   0   0   3   0   0   0   0 |   h = P
   3   1   1   0   1   1   1   1 196   0   7   0   1   3   0   0   1   4   0   0   0   1   0   1   1   0 |   i = V
   1   1   3   5   3   1   2   0   0 190   0   6   1   2   1   3   5   0   0   7   0   2   1   1   3   1 |   j = X
   2   1   2   1   4   0   0   2   4   0 201   1   0   2   0   1   0   0   3   1   3   0   0   0   1   0 |   k = W
   3   6   0   0   2   8   0   3   0   1   0 183   1   3   0   1   3   1   1   3   0  10   1   0  10   1 |   l = D
   3   0   0   3   1   4   3   5   0   1   0   1 200   2   1   0   4   0   0   1   0   2   0   1   0   0 |   m = I
   1   2   2   0   0   2   3  19   4   3   1   1   3 173   0   8   2   7   0   0   1   5   0   0   3   0 |   n = F
   2   0   3   1   3   4   3   0   0   1   0   0   0   0 216   0   1   0   0   2   0   0   3   1   2   3 |   o = L
   2   0   0   0   0   4   0   3   2   3   2   2   0   5   0 208   1  10   2   1   0   1   1   0   1   0 |   p = T
   4   2   6   9   0   2   6   2   0   4   0   2   2   5   0   3 142   0   0   1   0   8   1   0   2   7 |   q = S
   2   3   1   2   1   1   1   3   5   2   1   1   0   3   0  11   1 199   2   0   2   2   0   0   2   1 |   r = Y
   1   3   4   0   9   0   0   1   0   0   6   1   0   1   0   2   0   0 199   1   5   2   1   3   4   0 |   s = U
   2   0   5   2   0  11   0   0   0   7   0   3   0   1   4   0   2   1   2 174   1   0   1   1   8   0 |   t = K
   0   3   2   0   3   4   1   1   0   1   7   2   0   2   0   0   0   2   8   2 206   0   1   0   2   0 |   u = M
   3   3   3   3   1   9   2   1   1   2   1  13   2   1   0   0   3   0   1   1   0 185   0   0   3   0 |   v = B
   2   1   2   0   0   0   1   0   1   2   0   2   0   1   2   0   2   0   1   2   1   0 192   0   0   1 |   w = A
   5   2   4   4   0   1   2   2   0   1   1   1   0   1   1   1   0   1   2   2   0   1   1 192   0   0 |   x = C
   0   7   4   1   2   9   1   3   0   2   2  11   0   1   2   1   1   1   1   8   1   3   0   2 135   1 |   y = H
   4   3   0   6   0   0   1   1   0   3   1   0   1   0   1   2  11   0   0   0   0   2   1   0   0 169 |   z = Z


=== Re-evaluation on test set ===

User supplied test set
Relation:     letter_test
Instances:     unknown (yet). Reading incrementally
Attributes:   17

=== Summary ===

Correctly Classified Instances        3957               79.14   %
Incorrectly Classified Instances      1043               20.86   %
Kappa statistic                          0.783 
Mean absolute error                      0.0177
Root mean squared error                  0.1184
Total Number of Instances             5000     

=== Detailed Accuracy By Class ===

                 TP Rate  FP Rate  Precision  Recall   F-Measure  MCC      ROC Area  PRC Area  Class
                 0.783    0.015    0.670      0.783    0.722      0.713    0.913     0.618     Q
                 0.743    0.011    0.718      0.743    0.730      0.720    0.901     0.663     O
                 0.725    0.014    0.655      0.725    0.688      0.677    0.905     0.648     G
                 0.773    0.012    0.729      0.773    0.750      0.740    0.916     0.665     E
                 0.865    0.008    0.833      0.865    0.848      0.842    0.939     0.767     N
                 0.734    0.014    0.689      0.734    0.710      0.698    0.869     0.596     R
                 0.780    0.005    0.863      0.780    0.819      0.814    0.892     0.791     J
                 0.842    0.006    0.864      0.842    0.853      0.847    0.943     0.851     P
                 0.781    0.005    0.860      0.781    0.818      0.812    0.889     0.702     V
                 0.855    0.012    0.737      0.855    0.791      0.785    0.938     0.664     X
                 0.930    0.008    0.823      0.930    0.873      0.870    0.969     0.799     W
                 0.799    0.012    0.741      0.799    0.769      0.759    0.912     0.669     D
                 0.865    0.005    0.886      0.865    0.875      0.870    0.957     0.838     I
                 0.735    0.010    0.747      0.735    0.741      0.731    0.912     0.672     F
                 0.880    0.006    0.857      0.880    0.868      0.863    0.946     0.824     L
                 0.856    0.006    0.847      0.856    0.851      0.845    0.931     0.738     T
                 0.667    0.011    0.701      0.667    0.683      0.672    0.860     0.587     S
                 0.783    0.007    0.809      0.783    0.796      0.788    0.924     0.696     Y
                 0.759    0.005    0.861      0.759    0.807      0.801    0.931     0.758     U
                 0.763    0.011    0.713      0.763    0.737      0.728    0.897     0.572     K
                 0.845    0.004    0.891      0.845    0.867      0.862    0.941     0.836     M
                 0.775    0.011    0.709      0.775    0.740      0.731    0.898     0.620     B
                 0.816    0.002    0.952      0.816    0.878      0.876    0.928     0.829     A
                 0.809    0.004    0.881      0.809    0.843      0.838    0.920     0.804     C
                 0.614    0.010    0.733      0.614    0.668      0.658    0.855     0.593     H
                 0.791    0.005    0.863      0.791    0.825      0.819    0.926     0.766     Z
Weighted Avg.    0.791    0.008    0.796      0.791    0.792      0.785    0.916     0.716     

=== Confusion Matrix ===

   a   b   c   d   e   f   g   h   i   j   k   l   m   n   o   p   q   r   s   t   u   v   w   x   y   z   <-- classified as
 144  10   4   2   0   2   2   0   0   4   1   4   0   0   2   2   0   1   1   0   0   4   0   0   0   1 |   a = Q
  13 130   3   0   3   0   0   2   0   1   3   5   0   0   1   0   0   0   2   2   0   0   0   4   6   0 |   b = O
   7   3 129   1   0   4   3   0   1   1   0   0   0   0   1   1   5   1   0   2   2   7   0   4   5   1 |   c = G
   8   0   4 153   0   3   1   2   1   7   0   0   3   0   2   1   5   1   0   5   0   0   0   1   0   1 |   d = E
   0   2   1   0 179   5   0   0   1   0   5   6   0   0   0   0   0   0   3   0   3   0   1   0   1   0 |   e = N
   2   4   3   3   2 146   0   0   0   3   0   6   0   0   2   1   5   0   1  10   4   6   0   0   1   0 |   f = R
   0   1   2   2   0   0 145   0   1   4   0   2   7   1   4   0   5   1   0   1   1   0   3   0   2   4 |   g = J
   1   1   0   3   2   3   0 171   0   2   2   0   1  14   0   0   1   0   0   0   0   0   0   0   1   1 |   h = P
   0   0   5   0   3   0   0   1 153   0  15   0   0   5   0   0   1   4   3   2   0   2   0   0   1   1 |   i = V
   0   2   0   6   3   2   1   2   0 165   0   1   0   1   0   0   2   1   0   2   0   1   0   0   4   0 |   j = X
   0   2   0   0   1   1   0   0   4   1 172   0   0   0   0   0   1   0   0   0   3   0   0   0   0   0 |   k = W
   1   4   2   0   4   8   1   0   0   1   0 163   2   0   0   0   2   0   0   0   1   8   0   0   6   1 |   l = D
   7   0   0   0   0   0   4   7   0   0   0   1 179   2   3   0   0   0   0   0   0   3   0   0   0   1 |   m = I
   0   1   5   2   0   3   1   5   4   3   0   2   1 136   0  11   2   7   0   0   1   1   0   0   0   0 |   n = F
   2   1   2   4   0   0   0   0   0   2   0   1   1   1 168   0   4   0   0   0   0   1   1   3   0   0 |   o = L
   1   1   2   5   0   1   2   0   0   2   1   0   1   4   0 166   2   4   0   0   0   0   0   0   0   2 |   p = T
   2   0  10  15   0   2   0   2   0   2   0   0   1   0   0   1 122   1   0   5   0  11   2   0   3   4 |   q = S
   1   1   1   1   0   1   3   2   5   0   2   0   4   8   1   5   0 144   2   0   1   1   0   0   1   0 |   r = Y
   2   2   2   1   5   2   1   0   1   3   2   6   0   1   0   2   0   5 161   0   2   0   0   4   6   4 |   s = U
   4   1   4   1   1   6   0   0   0   8   0   2   0   0   1   1   3   0   2 129   0   0   0   0   5   1 |   t = K
   1   0   1   1   7   3   1   0   0   0   5   0   0   2   0   0   1   1   3   1 163   1   1   0   0   1 |   u = M
   1   0   4   1   0   5   0   1   3   6   0   4   0   1   0   0   5   0   0   4   0 134   1   0   3   0 |   v = B
   5   0   0   0   1   4   0   0   0   1   0   3   0   0  10   1   0   4   4   1   2   1 177   3   0   0 |   w = A
   4   1   5   4   0   2   0   0   1   2   0   2   0   2   0   2   2   2   1   3   0   0   0 148   2   0 |   x = C
   2  13   6   0   4   7   0   2   1   2   1   9   2   2   1   1   2   0   4  14   0   6   0   1 129   1 |   y = H
   7   1   2   5   0   2   3   1   2   4   0   3   0   2   0   1   4   1   0   0   0   2   0   0   0 151 |   z = Z

